ISO-10303-21;
HEADER;
/* Generated by software containing ST-Developer
 * from STEP Tools, Inc. (www.steptools.com) 
 */
/* OPTION: using custom renumber hook */

FILE_DESCRIPTION(
/* description */ ('STEP AP242',
'CAx-IF Rec.Pracs.---Representation and Presentation of Product Manufa
cturing Information (PMI)---4.0---2014-10-13',
'CAx-IF Rec.Pracs.---3D Tessellated Geometry---0.4---2014-09-14','2;1'),

/* implementation_level */ '2;1');

FILE_NAME(
/* name */ '65c518d4c249992829672ab6',
/* time_stamp */ '2024-02-08T18:09:25Z',
/* author */ (''),
/* organization */ (''),
/* preprocessor_version */ 'ST-DEVELOPER v19.4',
/* originating_system */ '  ',
/* authorisation */ '  ');

FILE_SCHEMA (('AP242_MANAGED_MODEL_BASED_3D_ENGINEERING_MIM_LF { 1 0 10303 442 1 1 4 }'));
ENDSEC;

DATA;
#10=SHAPE_REPRESENTATION_RELATIONSHIP('','',#415,#11);
#11=ADVANCED_BREP_SHAPE_REPRESENTATION('',(#413),#649);
#12=ORIENTED_EDGE('',*,*,#120,.F.);
#13=ORIENTED_EDGE('',*,*,#121,.T.);
#14=ORIENTED_EDGE('',*,*,#122,.F.);
#15=ORIENTED_EDGE('',*,*,#123,.T.);
#16=ORIENTED_EDGE('',*,*,#124,.T.);
#17=ORIENTED_EDGE('',*,*,#125,.F.);
#18=ORIENTED_EDGE('',*,*,#126,.T.);
#19=ORIENTED_EDGE('',*,*,#127,.F.);
#20=ORIENTED_EDGE('',*,*,#128,.T.);
#21=ORIENTED_EDGE('',*,*,#129,.T.);
#22=ORIENTED_EDGE('',*,*,#130,.T.);
#23=ORIENTED_EDGE('',*,*,#131,.T.);
#24=ORIENTED_EDGE('',*,*,#132,.T.);
#25=ORIENTED_EDGE('',*,*,#133,.T.);
#26=ORIENTED_EDGE('',*,*,#134,.F.);
#27=ORIENTED_EDGE('',*,*,#135,.F.);
#28=ORIENTED_EDGE('',*,*,#136,.T.);
#29=ORIENTED_EDGE('',*,*,#137,.F.);
#30=ORIENTED_EDGE('',*,*,#121,.F.);
#31=ORIENTED_EDGE('',*,*,#138,.T.);
#32=ORIENTED_EDGE('',*,*,#139,.T.);
#33=ORIENTED_EDGE('',*,*,#140,.T.);
#34=ORIENTED_EDGE('',*,*,#141,.T.);
#35=ORIENTED_EDGE('',*,*,#142,.F.);
#36=ORIENTED_EDGE('',*,*,#143,.F.);
#37=ORIENTED_EDGE('',*,*,#135,.T.);
#38=ORIENTED_EDGE('',*,*,#144,.T.);
#39=ORIENTED_EDGE('',*,*,#145,.F.);
#40=ORIENTED_EDGE('',*,*,#146,.F.);
#41=ORIENTED_EDGE('',*,*,#147,.F.);
#42=ORIENTED_EDGE('',*,*,#127,.T.);
#43=ORIENTED_EDGE('',*,*,#148,.T.);
#44=ORIENTED_EDGE('',*,*,#149,.F.);
#45=ORIENTED_EDGE('',*,*,#142,.T.);
#46=ORIENTED_EDGE('',*,*,#150,.F.);
#47=ORIENTED_EDGE('',*,*,#140,.F.);
#48=ORIENTED_EDGE('',*,*,#151,.T.);
#49=ORIENTED_EDGE('',*,*,#145,.T.);
#50=ORIENTED_EDGE('',*,*,#134,.T.);
#51=ORIENTED_EDGE('',*,*,#150,.T.);
#52=ORIENTED_EDGE('',*,*,#144,.F.);
#53=ORIENTED_EDGE('',*,*,#141,.F.);
#54=ORIENTED_EDGE('',*,*,#136,.F.);
#55=ORIENTED_EDGE('',*,*,#143,.T.);
#56=ORIENTED_EDGE('',*,*,#149,.T.);
#57=ORIENTED_EDGE('',*,*,#152,.F.);
#58=ORIENTED_EDGE('',*,*,#153,.T.);
#59=ORIENTED_EDGE('',*,*,#154,.F.);
#60=ORIENTED_EDGE('',*,*,#155,.F.);
#61=ORIENTED_EDGE('',*,*,#156,.T.);
#62=ORIENTED_EDGE('',*,*,#157,.F.);
#63=ORIENTED_EDGE('',*,*,#138,.F.);
#64=ORIENTED_EDGE('',*,*,#120,.T.);
#65=ORIENTED_EDGE('',*,*,#147,.T.);
#66=ORIENTED_EDGE('',*,*,#156,.F.);
#67=ORIENTED_EDGE('',*,*,#158,.F.);
#68=ORIENTED_EDGE('',*,*,#122,.T.);
#69=ORIENTED_EDGE('',*,*,#137,.T.);
#70=ORIENTED_EDGE('',*,*,#155,.T.);
#71=ORIENTED_EDGE('',*,*,#159,.F.);
#72=ORIENTED_EDGE('',*,*,#123,.F.);
#73=ORIENTED_EDGE('',*,*,#158,.T.);
#74=ORIENTED_EDGE('',*,*,#154,.T.);
#75=ORIENTED_EDGE('',*,*,#160,.F.);
#76=ORIENTED_EDGE('',*,*,#124,.F.);
#77=ORIENTED_EDGE('',*,*,#159,.T.);
#78=ORIENTED_EDGE('',*,*,#153,.F.);
#79=ORIENTED_EDGE('',*,*,#161,.F.);
#80=ORIENTED_EDGE('',*,*,#125,.T.);
#81=ORIENTED_EDGE('',*,*,#160,.T.);
#82=ORIENTED_EDGE('',*,*,#152,.T.);
#83=ORIENTED_EDGE('',*,*,#148,.F.);
#84=ORIENTED_EDGE('',*,*,#126,.F.);
#85=ORIENTED_EDGE('',*,*,#161,.T.);
#86=ORIENTED_EDGE('',*,*,#151,.F.);
#87=ORIENTED_EDGE('',*,*,#139,.F.);
#88=ORIENTED_EDGE('',*,*,#157,.T.);
#89=ORIENTED_EDGE('',*,*,#146,.T.);
#90=ORIENTED_EDGE('',*,*,#129,.F.);
#91=ORIENTED_EDGE('',*,*,#162,.F.);
#92=ORIENTED_EDGE('',*,*,#163,.T.);
#93=ORIENTED_EDGE('',*,*,#164,.T.);
#94=ORIENTED_EDGE('',*,*,#128,.F.);
#95=ORIENTED_EDGE('',*,*,#165,.F.);
#96=ORIENTED_EDGE('',*,*,#166,.T.);
#97=ORIENTED_EDGE('',*,*,#162,.T.);
#98=ORIENTED_EDGE('',*,*,#133,.F.);
#99=ORIENTED_EDGE('',*,*,#167,.F.);
#100=ORIENTED_EDGE('',*,*,#168,.T.);
#101=ORIENTED_EDGE('',*,*,#165,.T.);
#102=ORIENTED_EDGE('',*,*,#132,.F.);
#103=ORIENTED_EDGE('',*,*,#169,.F.);
#104=ORIENTED_EDGE('',*,*,#170,.T.);
#105=ORIENTED_EDGE('',*,*,#167,.T.);
#106=ORIENTED_EDGE('',*,*,#131,.F.);
#107=ORIENTED_EDGE('',*,*,#171,.F.);
#108=ORIENTED_EDGE('',*,*,#172,.T.);
#109=ORIENTED_EDGE('',*,*,#169,.T.);
#110=ORIENTED_EDGE('',*,*,#130,.F.);
#111=ORIENTED_EDGE('',*,*,#164,.F.);
#112=ORIENTED_EDGE('',*,*,#173,.T.);
#113=ORIENTED_EDGE('',*,*,#171,.T.);
#114=ORIENTED_EDGE('',*,*,#163,.F.);
#115=ORIENTED_EDGE('',*,*,#166,.F.);
#116=ORIENTED_EDGE('',*,*,#168,.F.);
#117=ORIENTED_EDGE('',*,*,#170,.F.);
#118=ORIENTED_EDGE('',*,*,#172,.F.);
#119=ORIENTED_EDGE('',*,*,#173,.F.);
#120=EDGE_CURVE('',#174,#175,#210,.T.);
#121=EDGE_CURVE('',#174,#176,#211,.T.);
#122=EDGE_CURVE('',#177,#176,#212,.T.);
#123=EDGE_CURVE('',#177,#178,#213,.T.);
#124=EDGE_CURVE('',#178,#179,#214,.T.);
#125=EDGE_CURVE('',#180,#179,#215,.T.);
#126=EDGE_CURVE('',#180,#181,#216,.T.);
#127=EDGE_CURVE('',#175,#181,#217,.T.);
#128=EDGE_CURVE('',#182,#183,#218,.T.);
#129=EDGE_CURVE('',#183,#184,#219,.T.);
#130=EDGE_CURVE('',#184,#185,#220,.T.);
#131=EDGE_CURVE('',#185,#186,#221,.T.);
#132=EDGE_CURVE('',#186,#187,#222,.T.);
#133=EDGE_CURVE('',#187,#182,#223,.T.);
#134=EDGE_CURVE('',#188,#189,#224,.T.);
#135=EDGE_CURVE('',#190,#188,#225,.T.);
#136=EDGE_CURVE('',#190,#191,#226,.T.);
#137=EDGE_CURVE('',#176,#191,#227,.T.);
#138=EDGE_CURVE('',#174,#192,#228,.T.);
#139=EDGE_CURVE('',#192,#193,#229,.T.);
#140=EDGE_CURVE('',#193,#189,#230,.T.);
#141=EDGE_CURVE('',#188,#194,#231,.T.);
#142=EDGE_CURVE('',#195,#194,#232,.T.);
#143=EDGE_CURVE('',#190,#195,#233,.T.);
#144=EDGE_CURVE('',#194,#196,#234,.T.);
#145=EDGE_CURVE('',#197,#196,#235,.T.);
#146=EDGE_CURVE('',#198,#197,#236,.T.);
#147=EDGE_CURVE('',#175,#198,#237,.T.);
#148=EDGE_CURVE('',#181,#199,#238,.T.);
#149=EDGE_CURVE('',#195,#199,#239,.T.);
#150=EDGE_CURVE('',#189,#196,#240,.T.);
#151=EDGE_CURVE('',#193,#197,#241,.T.);
#152=EDGE_CURVE('',#200,#199,#242,.T.);
#153=EDGE_CURVE('',#200,#201,#243,.T.);
#154=EDGE_CURVE('',#202,#201,#244,.T.);
#155=EDGE_CURVE('',#203,#202,#245,.T.);
#156=EDGE_CURVE('',#203,#191,#246,.T.);
#157=EDGE_CURVE('',#192,#198,#247,.T.);
#158=EDGE_CURVE('',#177,#203,#248,.T.);
#159=EDGE_CURVE('',#178,#202,#249,.T.);
#160=EDGE_CURVE('',#179,#201,#250,.T.);
#161=EDGE_CURVE('',#180,#200,#251,.T.);
#162=EDGE_CURVE('',#204,#183,#252,.T.);
#163=EDGE_CURVE('',#204,#205,#253,.T.);
#164=EDGE_CURVE('',#205,#184,#254,.T.);
#165=EDGE_CURVE('',#206,#182,#255,.T.);
#166=EDGE_CURVE('',#206,#204,#256,.T.);
#167=EDGE_CURVE('',#207,#187,#257,.T.);
#168=EDGE_CURVE('',#207,#206,#258,.T.);
#169=EDGE_CURVE('',#208,#186,#259,.T.);
#170=EDGE_CURVE('',#208,#207,#260,.T.);
#171=EDGE_CURVE('',#209,#185,#261,.T.);
#172=EDGE_CURVE('',#209,#208,#262,.T.);
#173=EDGE_CURVE('',#205,#209,#263,.T.);
#174=VERTEX_POINT('',#539);
#175=VERTEX_POINT('',#540);
#176=VERTEX_POINT('',#542);
#177=VERTEX_POINT('',#544);
#178=VERTEX_POINT('',#546);
#179=VERTEX_POINT('',#548);
#180=VERTEX_POINT('',#550);
#181=VERTEX_POINT('',#552);
#182=VERTEX_POINT('',#555);
#183=VERTEX_POINT('',#556);
#184=VERTEX_POINT('',#558);
#185=VERTEX_POINT('',#560);
#186=VERTEX_POINT('',#562);
#187=VERTEX_POINT('',#564);
#188=VERTEX_POINT('',#568);
#189=VERTEX_POINT('',#569);
#190=VERTEX_POINT('',#571);
#191=VERTEX_POINT('',#573);
#192=VERTEX_POINT('',#576);
#193=VERTEX_POINT('',#578);
#194=VERTEX_POINT('',#582);
#195=VERTEX_POINT('',#584);
#196=VERTEX_POINT('',#588);
#197=VERTEX_POINT('',#590);
#198=VERTEX_POINT('',#592);
#199=VERTEX_POINT('',#595);
#200=VERTEX_POINT('',#603);
#201=VERTEX_POINT('',#605);
#202=VERTEX_POINT('',#607);
#203=VERTEX_POINT('',#609);
#204=VERTEX_POINT('',#625);
#205=VERTEX_POINT('',#627);
#206=VERTEX_POINT('',#631);
#207=VERTEX_POINT('',#635);
#208=VERTEX_POINT('',#639);
#209=VERTEX_POINT('',#643);
#210=LINE('',#538,#264);
#211=LINE('',#541,#265);
#212=LINE('',#543,#266);
#213=LINE('',#545,#267);
#214=LINE('',#547,#268);
#215=LINE('',#549,#269);
#216=LINE('',#551,#270);
#217=LINE('',#553,#271);
#218=LINE('',#554,#272);
#219=LINE('',#557,#273);
#220=LINE('',#559,#274);
#221=LINE('',#561,#275);
#222=LINE('',#563,#276);
#223=LINE('',#565,#277);
#224=LINE('',#567,#278);
#225=LINE('',#570,#279);
#226=LINE('',#572,#280);
#227=LINE('',#574,#281);
#228=LINE('',#575,#282);
#229=LINE('',#577,#283);
#230=LINE('',#579,#284);
#231=LINE('',#581,#285);
#232=LINE('',#583,#286);
#233=LINE('',#585,#287);
#234=LINE('',#587,#288);
#235=LINE('',#589,#289);
#236=LINE('',#591,#290);
#237=LINE('',#593,#291);
#238=LINE('',#594,#292);
#239=LINE('',#596,#293);
#240=LINE('',#598,#294);
#241=LINE('',#599,#295);
#242=LINE('',#602,#296);
#243=LINE('',#604,#297);
#244=LINE('',#606,#298);
#245=LINE('',#608,#299);
#246=LINE('',#610,#300);
#247=LINE('',#612,#301);
#248=LINE('',#614,#302);
#249=LINE('',#616,#303);
#250=LINE('',#618,#304);
#251=LINE('',#620,#305);
#252=LINE('',#624,#306);
#253=LINE('',#626,#307);
#254=LINE('',#628,#308);
#255=LINE('',#630,#309);
#256=LINE('',#632,#310);
#257=LINE('',#634,#311);
#258=LINE('',#636,#312);
#259=LINE('',#638,#313);
#260=LINE('',#640,#314);
#261=LINE('',#642,#315);
#262=LINE('',#644,#316);
#263=LINE('',#646,#317);
#264=VECTOR('',#442,1.);
#265=VECTOR('',#443,1.);
#266=VECTOR('',#444,1.);
#267=VECTOR('',#445,1.);
#268=VECTOR('',#446,1.);
#269=VECTOR('',#447,1.);
#270=VECTOR('',#448,1.);
#271=VECTOR('',#449,1.);
#272=VECTOR('',#450,1.);
#273=VECTOR('',#451,1.);
#274=VECTOR('',#452,1.);
#275=VECTOR('',#453,1.);
#276=VECTOR('',#454,1.);
#277=VECTOR('',#455,1.);
#278=VECTOR('',#458,1.);
#279=VECTOR('',#459,1.);
#280=VECTOR('',#460,1.);
#281=VECTOR('',#461,1.);
#282=VECTOR('',#462,1.);
#283=VECTOR('',#463,1.);
#284=VECTOR('',#464,1.);
#285=VECTOR('',#467,1.);
#286=VECTOR('',#468,1.);
#287=VECTOR('',#469,1.);
#288=VECTOR('',#472,1.);
#289=VECTOR('',#473,1.);
#290=VECTOR('',#474,1.);
#291=VECTOR('',#475,1.);
#292=VECTOR('',#476,1.);
#293=VECTOR('',#477,1.);
#294=VECTOR('',#480,1.);
#295=VECTOR('',#481,1.);
#296=VECTOR('',#486,1.);
#297=VECTOR('',#487,1.);
#298=VECTOR('',#488,1.);
#299=VECTOR('',#489,1.);
#300=VECTOR('',#490,1.);
#301=VECTOR('',#493,1.);
#302=VECTOR('',#496,1.);
#303=VECTOR('',#499,1.);
#304=VECTOR('',#502,1.);
#305=VECTOR('',#505,1.);
#306=VECTOR('',#512,1.);
#307=VECTOR('',#513,1.);
#308=VECTOR('',#514,1.);
#309=VECTOR('',#517,1.);
#310=VECTOR('',#518,1.);
#311=VECTOR('',#521,1.);
#312=VECTOR('',#522,1.);
#313=VECTOR('',#525,1.);
#314=VECTOR('',#526,1.);
#315=VECTOR('',#529,1.);
#316=VECTOR('',#530,1.);
#317=VECTOR('',#533,1.);
#318=EDGE_LOOP('',(#12,#13,#14,#15,#16,#17,#18,#19));
#319=EDGE_LOOP('',(#20,#21,#22,#23,#24,#25));
#320=EDGE_LOOP('',(#26,#27,#28,#29,#30,#31,#32,#33));
#321=EDGE_LOOP('',(#34,#35,#36,#37));
#322=EDGE_LOOP('',(#38,#39,#40,#41,#42,#43,#44,#45));
#323=EDGE_LOOP('',(#46,#47,#48,#49));
#324=EDGE_LOOP('',(#50,#51,#52,#53));
#325=EDGE_LOOP('',(#54,#55,#56,#57,#58,#59,#60,#61));
#326=EDGE_LOOP('',(#62,#63,#64,#65));
#327=EDGE_LOOP('',(#66,#67,#68,#69));
#328=EDGE_LOOP('',(#70,#71,#72,#73));
#329=EDGE_LOOP('',(#74,#75,#76,#77));
#330=EDGE_LOOP('',(#78,#79,#80,#81));
#331=EDGE_LOOP('',(#82,#83,#84,#85));
#332=EDGE_LOOP('',(#86,#87,#88,#89));
#333=EDGE_LOOP('',(#90,#91,#92,#93));
#334=EDGE_LOOP('',(#94,#95,#96,#97));
#335=EDGE_LOOP('',(#98,#99,#100,#101));
#336=EDGE_LOOP('',(#102,#103,#104,#105));
#337=EDGE_LOOP('',(#106,#107,#108,#109));
#338=EDGE_LOOP('',(#110,#111,#112,#113));
#339=EDGE_LOOP('',(#114,#115,#116,#117,#118,#119));
#340=FACE_BOUND('',#318,.T.);
#341=FACE_BOUND('',#319,.T.);
#342=FACE_BOUND('',#320,.T.);
#343=FACE_BOUND('',#321,.T.);
#344=FACE_BOUND('',#322,.T.);
#345=FACE_BOUND('',#323,.T.);
#346=FACE_BOUND('',#324,.T.);
#347=FACE_BOUND('',#325,.T.);
#348=FACE_BOUND('',#326,.T.);
#349=FACE_BOUND('',#327,.T.);
#350=FACE_BOUND('',#328,.T.);
#351=FACE_BOUND('',#329,.T.);
#352=FACE_BOUND('',#330,.T.);
#353=FACE_BOUND('',#331,.T.);
#354=FACE_BOUND('',#332,.T.);
#355=FACE_BOUND('',#333,.T.);
#356=FACE_BOUND('',#334,.T.);
#357=FACE_BOUND('',#335,.T.);
#358=FACE_BOUND('',#336,.T.);
#359=FACE_BOUND('',#337,.T.);
#360=FACE_BOUND('',#338,.T.);
#361=FACE_BOUND('',#339,.T.);
#362=PLANE('',#417);
#363=PLANE('',#418);
#364=PLANE('',#419);
#365=PLANE('',#420);
#366=PLANE('',#421);
#367=PLANE('',#422);
#368=PLANE('',#423);
#369=PLANE('',#424);
#370=PLANE('',#425);
#371=PLANE('',#426);
#372=PLANE('',#427);
#373=PLANE('',#428);
#374=PLANE('',#429);
#375=PLANE('',#430);
#376=PLANE('',#431);
#377=PLANE('',#432);
#378=PLANE('',#433);
#379=PLANE('',#434);
#380=PLANE('',#435);
#381=PLANE('',#436);
#382=PLANE('',#437);
#383=ADVANCED_FACE('',(#340,#341),#362,.T.);
#384=ADVANCED_FACE('',(#342),#363,.T.);
#385=ADVANCED_FACE('',(#343),#364,.F.);
#386=ADVANCED_FACE('',(#344),#365,.F.);
#387=ADVANCED_FACE('',(#345),#366,.T.);
#388=ADVANCED_FACE('',(#346),#367,.F.);
#389=ADVANCED_FACE('',(#347),#368,.F.);
#390=ADVANCED_FACE('',(#348),#369,.T.);
#391=ADVANCED_FACE('',(#349),#370,.T.);
#392=ADVANCED_FACE('',(#350),#371,.F.);
#393=ADVANCED_FACE('',(#351),#372,.F.);
#394=ADVANCED_FACE('',(#352),#373,.T.);
#395=ADVANCED_FACE('',(#353),#374,.F.);
#396=ADVANCED_FACE('',(#354),#375,.F.);
#397=ADVANCED_FACE('',(#355),#376,.T.);
#398=ADVANCED_FACE('',(#356),#377,.T.);
#399=ADVANCED_FACE('',(#357),#378,.T.);
#400=ADVANCED_FACE('',(#358),#379,.T.);
#401=ADVANCED_FACE('',(#359),#380,.T.);
#402=ADVANCED_FACE('',(#360),#381,.T.);
#403=ADVANCED_FACE('',(#361),#382,.T.);
#404=CLOSED_SHELL('',(#383,#384,#385,#386,#387,#388,#389,#390,#391,#392,
#393,#394,#395,#396,#397,#398,#399,#400,#401,#402,#403));
#405=STYLED_ITEM('',(#406),#413);
#406=PRESENTATION_STYLE_ASSIGNMENT((#407));
#407=SURFACE_STYLE_USAGE(.BOTH.,#408);
#408=SURFACE_SIDE_STYLE('',(#409));
#409=SURFACE_STYLE_FILL_AREA(#410);
#410=FILL_AREA_STYLE('',(#411));
#411=FILL_AREA_STYLE_COLOUR('',#412);
#412=COLOUR_RGB('',0.0901960784313725,0.0901960784313725,0.0901960784313725);
#413=MANIFOLD_SOLID_BREP('Part 1',#404);
#414=SHAPE_DEFINITION_REPRESENTATION(#654,#415);
#415=SHAPE_REPRESENTATION('Part 1',(#416),#649);
#416=AXIS2_PLACEMENT_3D('',#536,#438,#439);
#417=AXIS2_PLACEMENT_3D('',#537,#440,#441);
#418=AXIS2_PLACEMENT_3D('',#566,#456,#457);
#419=AXIS2_PLACEMENT_3D('',#580,#465,#466);
#420=AXIS2_PLACEMENT_3D('',#586,#470,#471);
#421=AXIS2_PLACEMENT_3D('',#597,#478,#479);
#422=AXIS2_PLACEMENT_3D('',#600,#482,#483);
#423=AXIS2_PLACEMENT_3D('',#601,#484,#485);
#424=AXIS2_PLACEMENT_3D('',#611,#491,#492);
#425=AXIS2_PLACEMENT_3D('',#613,#494,#495);
#426=AXIS2_PLACEMENT_3D('',#615,#497,#498);
#427=AXIS2_PLACEMENT_3D('',#617,#500,#501);
#428=AXIS2_PLACEMENT_3D('',#619,#503,#504);
#429=AXIS2_PLACEMENT_3D('',#621,#506,#507);
#430=AXIS2_PLACEMENT_3D('',#622,#508,#509);
#431=AXIS2_PLACEMENT_3D('',#623,#510,#511);
#432=AXIS2_PLACEMENT_3D('',#629,#515,#516);
#433=AXIS2_PLACEMENT_3D('',#633,#519,#520);
#434=AXIS2_PLACEMENT_3D('',#637,#523,#524);
#435=AXIS2_PLACEMENT_3D('',#641,#527,#528);
#436=AXIS2_PLACEMENT_3D('',#645,#531,#532);
#437=AXIS2_PLACEMENT_3D('',#647,#534,#535);
#438=DIRECTION('',(0.,0.,1.));
#439=DIRECTION('',(1.,0.,0.));
#440=DIRECTION('',(0.,0.,1.));
#441=DIRECTION('',(1.,0.,0.));
#442=DIRECTION('',(4.95635278850517E-16,-1.,0.));
#443=DIRECTION('',(-1.,0.,0.));
#444=DIRECTION('',(0.,1.,0.));
#445=DIRECTION('',(-1.,0.,0.));
#446=DIRECTION('',(0.,-1.,0.));
#447=DIRECTION('',(-1.,0.,0.));
#448=DIRECTION('',(0.,-1.,0.));
#449=DIRECTION('',(-1.,0.,0.));
#450=DIRECTION('',(0.,1.,0.));
#451=DIRECTION('',(1.,0.,0.));
#452=DIRECTION('',(0.,-1.,0.));
#453=DIRECTION('',(-1.,0.,0.));
#454=DIRECTION('',(0.,1.,0.));
#455=DIRECTION('',(-1.,-1.21916039270075E-16,0.));
#456=DIRECTION('',(3.24247378687253E-16,1.,0.));
#457=DIRECTION('',(-1.,3.24247378687253E-16,0.));
#458=DIRECTION('',(1.,-3.24247378687253E-16,0.));
#459=DIRECTION('',(0.,0.,-1.));
#460=DIRECTION('',(-1.,0.,0.));
#461=DIRECTION('',(0.,0.,-1.));
#462=DIRECTION('',(0.,0.,-1.));
#463=DIRECTION('',(-1.,0.,0.));
#464=DIRECTION('',(0.,0.,-1.));
#465=DIRECTION('',(1.,-2.47817639425258E-16,0.));
#466=DIRECTION('',(2.47817639425258E-16,1.,0.));
#467=DIRECTION('',(-2.47817639425258E-16,-1.,0.));
#468=DIRECTION('',(0.,0.,-1.));
#469=DIRECTION('',(-2.47817639425258E-16,-1.,0.));
#470=DIRECTION('',(3.24247378687253E-16,1.,0.));
#471=DIRECTION('',(-1.,3.24247378687253E-16,0.));
#472=DIRECTION('',(1.,-3.24247378687253E-16,0.));
#473=DIRECTION('',(0.,0.,-1.));
#474=DIRECTION('',(-1.,0.,0.));
#475=DIRECTION('',(0.,0.,-1.));
#476=DIRECTION('',(0.,0.,-1.));
#477=DIRECTION('',(-1.,0.,0.));
#478=DIRECTION('',(1.,-2.47817639425258E-16,0.));
#479=DIRECTION('',(2.47817639425258E-16,1.,0.));
#480=DIRECTION('',(-2.47817639425258E-16,-1.,0.));
#481=DIRECTION('',(-2.47817639425258E-16,-1.,0.));
#482=DIRECTION('',(0.,0.,1.));
#483=DIRECTION('',(1.,0.,0.));
#484=DIRECTION('',(0.,0.,1.));
#485=DIRECTION('',(1.,0.,0.));
#486=DIRECTION('',(0.,-1.,0.));
#487=DIRECTION('',(-1.,0.,0.));
#488=DIRECTION('',(0.,-1.,0.));
#489=DIRECTION('',(-1.,0.,0.));
#490=DIRECTION('',(0.,1.,0.));
#491=DIRECTION('',(1.,4.95635278850517E-16,0.));
#492=DIRECTION('',(-4.95635278850517E-16,1.,0.));
#493=DIRECTION('',(4.95635278850517E-16,-1.,0.));
#494=DIRECTION('',(-1.,0.,0.));
#495=DIRECTION('',(0.,0.,1.));
#496=DIRECTION('',(0.,0.,-1.));
#497=DIRECTION('',(0.,-1.,0.));
#498=DIRECTION('',(0.,0.,-1.));
#499=DIRECTION('',(0.,0.,-1.));
#500=DIRECTION('',(1.,0.,0.));
#501=DIRECTION('',(0.,0.,-1.));
#502=DIRECTION('',(0.,0.,-1.));
#503=DIRECTION('',(0.,-1.,0.));
#504=DIRECTION('',(0.,0.,-1.));
#505=DIRECTION('',(0.,0.,-1.));
#506=DIRECTION('',(1.,0.,0.));
#507=DIRECTION('',(0.,0.,-1.));
#508=DIRECTION('',(0.,0.,1.));
#509=DIRECTION('',(1.,0.,0.));
#510=DIRECTION('',(0.,-1.,0.));
#511=DIRECTION('',(0.,0.,-1.));
#512=DIRECTION('',(0.,0.,1.));
#513=DIRECTION('',(1.,0.,0.));
#514=DIRECTION('',(0.,0.,1.));
#515=DIRECTION('',(1.,0.,0.));
#516=DIRECTION('',(0.,0.,-1.));
#517=DIRECTION('',(0.,0.,1.));
#518=DIRECTION('',(0.,1.,0.));
#519=DIRECTION('',(-1.21916039270075E-16,1.,0.));
#520=DIRECTION('',(-1.,-1.21916039270075E-16,0.));
#521=DIRECTION('',(0.,0.,1.));
#522=DIRECTION('',(-1.,-1.21916039270075E-16,0.));
#523=DIRECTION('',(1.,0.,0.));
#524=DIRECTION('',(0.,0.,-1.));
#525=DIRECTION('',(0.,0.,1.));
#526=DIRECTION('',(0.,1.,0.));
#527=DIRECTION('',(0.,1.,0.));
#528=DIRECTION('',(0.,0.,1.));
#529=DIRECTION('',(0.,0.,1.));
#530=DIRECTION('',(-1.,0.,0.));
#531=DIRECTION('',(-1.,0.,0.));
#532=DIRECTION('',(0.,0.,1.));
#533=DIRECTION('',(0.,-1.,0.));
#534=DIRECTION('',(0.,0.,1.));
#535=DIRECTION('',(1.,0.,0.));
#536=CARTESIAN_POINT('',(0.,0.,0.));
#537=CARTESIAN_POINT('',(-0.00013,0.,0.009));
#538=CARTESIAN_POINT('',(0.00685,-6.50521303491303E-19,0.009));
#539=CARTESIAN_POINT('',(0.00685,0.00175,0.009));
#540=CARTESIAN_POINT('',(0.00685,-0.00175,0.009));
#541=CARTESIAN_POINT('',(0.00037,0.00175,0.009));
#542=CARTESIAN_POINT('',(-0.00611,0.00175,0.009));
#543=CARTESIAN_POINT('',(-0.00611,0.00135,0.009));
#544=CARTESIAN_POINT('',(-0.00611,0.00095,0.009));
#545=CARTESIAN_POINT('',(-0.00661,0.00095,0.009));
#546=CARTESIAN_POINT('',(-0.00711,0.00095,0.009));
#547=CARTESIAN_POINT('',(-0.00711,1.95156391047391E-18,0.009));
#548=CARTESIAN_POINT('',(-0.00711,-0.00095,0.009));
#549=CARTESIAN_POINT('',(-0.00661,-0.00095,0.009));
#550=CARTESIAN_POINT('',(-0.00611,-0.00095,0.009));
#551=CARTESIAN_POINT('',(-0.00611,-0.00135,0.009));
#552=CARTESIAN_POINT('',(-0.00611,-0.00175,0.009));
#553=CARTESIAN_POINT('',(0.00037,-0.00175,0.009));
#554=CARTESIAN_POINT('',(-0.00491,0.00055,0.009));
#555=CARTESIAN_POINT('',(-0.00491,-0.00015,0.009));
#556=CARTESIAN_POINT('',(-0.00491,0.00125,0.009));
#557=CARTESIAN_POINT('',(0.00047,0.00125,0.009));
#558=CARTESIAN_POINT('',(0.00585,0.00125,0.009));
#559=CARTESIAN_POINT('',(0.00585,-2.16840434497101E-19,0.009));
#560=CARTESIAN_POINT('',(0.00585,-0.00125,0.009));
#561=CARTESIAN_POINT('',(0.00525,-0.00125,0.009));
#562=CARTESIAN_POINT('',(0.00465,-0.00125,0.009));
#563=CARTESIAN_POINT('',(0.00465,-0.0007,0.009));
#564=CARTESIAN_POINT('',(0.00465,-0.00015,0.009));
#565=CARTESIAN_POINT('',(-0.00013,-0.00015,0.009));
#566=CARTESIAN_POINT('',(0.,0.00175,0.0031));
#567=CARTESIAN_POINT('',(0.,0.00175,0.));
#568=CARTESIAN_POINT('',(-0.00535,0.00175,0.));
#569=CARTESIAN_POINT('',(0.00535,0.00175,0.));
#570=CARTESIAN_POINT('',(-0.00535,0.00175,0.0031));
#571=CARTESIAN_POINT('',(-0.00535,0.00175,0.0031));
#572=CARTESIAN_POINT('',(0.00037,0.00175,0.0031));
#573=CARTESIAN_POINT('',(-0.00611,0.00175,0.0031));
#574=CARTESIAN_POINT('',(-0.00611,0.00175,0.009));
#575=CARTESIAN_POINT('',(0.00685,0.00175,0.009));
#576=CARTESIAN_POINT('',(0.00685,0.00175,0.0031));
#577=CARTESIAN_POINT('',(0.00037,0.00175,0.0031));
#578=CARTESIAN_POINT('',(0.00535,0.00175,0.0031));
#579=CARTESIAN_POINT('',(0.00535,0.00175,0.0031));
#580=CARTESIAN_POINT('',(-0.00535,0.,0.0031));
#581=CARTESIAN_POINT('',(-0.00535,0.,0.));
#582=CARTESIAN_POINT('',(-0.00535,-0.00175,0.));
#583=CARTESIAN_POINT('',(-0.00535,-0.00175,0.0031));
#584=CARTESIAN_POINT('',(-0.00535,-0.00175,0.0031));
#585=CARTESIAN_POINT('',(-0.00535,0.,0.0031));
#586=CARTESIAN_POINT('',(0.,-0.00175,0.0031));
#587=CARTESIAN_POINT('',(0.,-0.00175,0.));
#588=CARTESIAN_POINT('',(0.00535,-0.00175,0.));
#589=CARTESIAN_POINT('',(0.00535,-0.00175,0.0031));
#590=CARTESIAN_POINT('',(0.00535,-0.00175,0.0031));
#591=CARTESIAN_POINT('',(0.00037,-0.00175,0.0031));
#592=CARTESIAN_POINT('',(0.00685,-0.00175,0.0031));
#593=CARTESIAN_POINT('',(0.00685,-0.00175,0.009));
#594=CARTESIAN_POINT('',(-0.00611,-0.00175,0.009));
#595=CARTESIAN_POINT('',(-0.00611,-0.00175,0.0031));
#596=CARTESIAN_POINT('',(0.00037,-0.00175,0.0031));
#597=CARTESIAN_POINT('',(0.00535,0.,0.0031));
#598=CARTESIAN_POINT('',(0.00535,0.,0.));
#599=CARTESIAN_POINT('',(0.00535,0.,0.0031));
#600=CARTESIAN_POINT('',(0.,0.,0.));
#601=CARTESIAN_POINT('',(-0.00013,0.,0.0031));
#602=CARTESIAN_POINT('',(-0.00611,-0.00135,0.0031));
#603=CARTESIAN_POINT('',(-0.00611,-0.00095,0.0031));
#604=CARTESIAN_POINT('',(-0.00661,-0.00095,0.0031));
#605=CARTESIAN_POINT('',(-0.00711,-0.00095,0.0031));
#606=CARTESIAN_POINT('',(-0.00711,1.95156391047391E-18,0.0031));
#607=CARTESIAN_POINT('',(-0.00711,0.00095,0.0031));
#608=CARTESIAN_POINT('',(-0.00661,0.00095,0.0031));
#609=CARTESIAN_POINT('',(-0.00611,0.00095,0.0031));
#610=CARTESIAN_POINT('',(-0.00611,0.00135,0.0031));
#611=CARTESIAN_POINT('',(0.00685,-6.50521303491303E-19,0.009));
#612=CARTESIAN_POINT('',(0.00685,-6.50521303491303E-19,0.0031));
#613=CARTESIAN_POINT('',(-0.00611,0.00135,0.009));
#614=CARTESIAN_POINT('',(-0.00611,0.00095,0.009));
#615=CARTESIAN_POINT('',(-0.00661,0.00095,0.009));
#616=CARTESIAN_POINT('',(-0.00711,0.00095,0.009));
#617=CARTESIAN_POINT('',(-0.00711,1.95156391047391E-18,0.009));
#618=CARTESIAN_POINT('',(-0.00711,-0.00095,0.009));
#619=CARTESIAN_POINT('',(-0.00661,-0.00095,0.009));
#620=CARTESIAN_POINT('',(-0.00611,-0.00095,0.009));
#621=CARTESIAN_POINT('',(-0.00611,-0.00135,0.009));
#622=CARTESIAN_POINT('',(-0.00013,0.,0.0031));
#623=CARTESIAN_POINT('',(0.00047,0.00125,0.0035));
#624=CARTESIAN_POINT('',(-0.00491,0.00125,0.0035));
#625=CARTESIAN_POINT('',(-0.00491,0.00125,0.0035));
#626=CARTESIAN_POINT('',(0.00047,0.00125,0.0035));
#627=CARTESIAN_POINT('',(0.00585,0.00125,0.0035));
#628=CARTESIAN_POINT('',(0.00585,0.00125,0.0035));
#629=CARTESIAN_POINT('',(-0.00491,0.00055,0.0035));
#630=CARTESIAN_POINT('',(-0.00491,-0.00015,0.0035));
#631=CARTESIAN_POINT('',(-0.00491,-0.00015,0.0035));
#632=CARTESIAN_POINT('',(-0.00491,0.00055,0.0035));
#633=CARTESIAN_POINT('',(-0.00013,-0.00015,0.0035));
#634=CARTESIAN_POINT('',(0.00465,-0.00015,0.0035));
#635=CARTESIAN_POINT('',(0.00465,-0.00015,0.0035));
#636=CARTESIAN_POINT('',(-0.00013,-0.00015,0.0035));
#637=CARTESIAN_POINT('',(0.00465,-0.0007,0.0035));
#638=CARTESIAN_POINT('',(0.00465,-0.00125,0.0035));
#639=CARTESIAN_POINT('',(0.00465,-0.00125,0.0035));
#640=CARTESIAN_POINT('',(0.00465,-0.0007,0.0035));
#641=CARTESIAN_POINT('',(0.00525,-0.00125,0.0035));
#642=CARTESIAN_POINT('',(0.00585,-0.00125,0.0035));
#643=CARTESIAN_POINT('',(0.00585,-0.00125,0.0035));
#644=CARTESIAN_POINT('',(0.00525,-0.00125,0.0035));
#645=CARTESIAN_POINT('',(0.00585,-2.16840434497101E-19,0.0035));
#646=CARTESIAN_POINT('',(0.00585,-2.16840434497101E-19,0.0035));
#647=CARTESIAN_POINT('',(-0.00013,8.67361737988404E-19,0.0035));
#648=MECHANICAL_DESIGN_GEOMETRIC_PRESENTATION_REPRESENTATION('',(#405),
#649);
#649=(
GEOMETRIC_REPRESENTATION_CONTEXT(3)
GLOBAL_UNCERTAINTY_ASSIGNED_CONTEXT((#650))
GLOBAL_UNIT_ASSIGNED_CONTEXT((#653,#652,#651))
REPRESENTATION_CONTEXT('Part 1','TOP_LEVEL_ASSEMBLY_PART')
);
#650=UNCERTAINTY_MEASURE_WITH_UNIT(LENGTH_MEASURE(5.E-6),#653,
'DISTANCE_ACCURACY_VALUE','Maximum Tolerance applied to model');
#651=(
NAMED_UNIT(*)
SI_UNIT($,.STERADIAN.)
SOLID_ANGLE_UNIT()
);
#652=(
NAMED_UNIT(*)
PLANE_ANGLE_UNIT()
SI_UNIT($,.RADIAN.)
);
#653=(
LENGTH_UNIT()
NAMED_UNIT(*)
SI_UNIT($,.METRE.)
);
#654=PRODUCT_DEFINITION_SHAPE('','',#655);
#655=PRODUCT_DEFINITION('','',#657,#656);
#656=PRODUCT_DEFINITION_CONTEXT('',#663,'design');
#657=PRODUCT_DEFINITION_FORMATION_WITH_SPECIFIED_SOURCE('','',#659,
 .NOT_KNOWN.);
#658=PRODUCT_RELATED_PRODUCT_CATEGORY('','',(#659));
#659=PRODUCT('Part 1','Part 1','Part 1',(#661));
#660=PRODUCT_CATEGORY('','');
#661=PRODUCT_CONTEXT('',#663,'mechanical');
#662=APPLICATION_PROTOCOL_DEFINITION('international standard',
'ap242_managed_model_based_3d_engineering',2011,#663);
#663=APPLICATION_CONTEXT('managed model based 3d engineering');
ENDSEC;
END-ISO-10303-21;
