(kicad_symbol_lib (version 20220914) (generator kicad_symbol_editor)
  (symbol "ITR20001" (pin_names (offset 1.016) hide) (in_bom yes) (on_board yes)
    (property "Reference" "U" (at -5.08 5.08 0)
      (effects (font (size 1.27 1.27)))
    )
    (property "Value" "ITR20001" (at 5.08 5.08 0)
      (effects (font (size 1.27 1.27)) (justify right))
    )
    (property "Footprint" "micromouse sensor:ITR20001" (at 0 -5.08 0)
      (effects (font (size 1.27 1.27)) hide)
    )
    (property "Datasheet" "" (at 0 0.635 0)
      (effects (font (size 1.27 1.27)) hide)
    )
    (property "ki_keywords" "Reflective Optical Sensor Opto" (at 0 0 0)
      (effects (font (size 1.27 1.27)) hide)
    )
    (property "ki_description" "Reflective Optical Sensor with Transistor Output" (at 0 0 0)
      (effects (font (size 1.27 1.27)) hide)
    )
    (property "ki_fp_filters" "Vishay*CNY70*" (at 0 0 0)
      (effects (font (size 1.27 1.27)) hide)
    )
    (symbol "ITR20001_0_1"
      (polyline
        (pts
          (xy -2.54 -0.635)
          (xy -3.81 -0.635)
        )
        (stroke (width 0.254) (type default))
        (fill (type none))
      )
      (polyline
        (pts
          (xy -2.286 2.921)
          (xy -2.032 3.175)
        )
        (stroke (width 0) (type default))
        (fill (type none))
      )
      (polyline
        (pts
          (xy -1.778 2.921)
          (xy -1.524 3.175)
        )
        (stroke (width 0) (type default))
        (fill (type none))
      )
      (polyline
        (pts
          (xy -1.524 2.667)
          (xy -1.651 2.159)
        )
        (stroke (width 0) (type default))
        (fill (type none))
      )
      (polyline
        (pts
          (xy -1.27 2.921)
          (xy -1.016 3.175)
        )
        (stroke (width 0) (type default))
        (fill (type none))
      )
      (polyline
        (pts
          (xy -1.143 1.905)
          (xy -1.27 1.397)
        )
        (stroke (width 0) (type default))
        (fill (type none))
      )
      (polyline
        (pts
          (xy -0.762 2.921)
          (xy -0.508 3.175)
        )
        (stroke (width 0) (type default))
        (fill (type none))
      )
      (polyline
        (pts
          (xy -0.254 2.921)
          (xy 0 3.175)
        )
        (stroke (width 0) (type default))
        (fill (type none))
      )
      (polyline
        (pts
          (xy 0.254 2.921)
          (xy 0.508 3.175)
        )
        (stroke (width 0) (type default))
        (fill (type none))
      )
      (polyline
        (pts
          (xy 0.762 2.921)
          (xy 1.016 3.175)
        )
        (stroke (width 0) (type default))
        (fill (type none))
      )
      (polyline
        (pts
          (xy 1.27 2.921)
          (xy 1.524 3.175)
        )
        (stroke (width 0) (type default))
        (fill (type none))
      )
      (polyline
        (pts
          (xy 1.651 0.889)
          (xy 1.143 1.016)
        )
        (stroke (width 0) (type default))
        (fill (type none))
      )
      (polyline
        (pts
          (xy 1.778 2.921)
          (xy -2.413 2.921)
        )
        (stroke (width 0) (type default))
        (fill (type none))
      )
      (polyline
        (pts
          (xy 2.032 1.651)
          (xy 1.524 1.778)
        )
        (stroke (width 0) (type default))
        (fill (type none))
      )
      (polyline
        (pts
          (xy 2.667 -0.127)
          (xy 3.81 -1.27)
        )
        (stroke (width 0) (type default))
        (fill (type none))
      )
      (polyline
        (pts
          (xy 2.667 0.127)
          (xy 3.81 1.27)
        )
        (stroke (width 0) (type default))
        (fill (type none))
      )
      (polyline
        (pts
          (xy -2.54 1.651)
          (xy -1.524 2.667)
          (xy -2.032 2.54)
        )
        (stroke (width 0) (type default))
        (fill (type none))
      )
      (polyline
        (pts
          (xy -2.159 0.889)
          (xy -1.143 1.905)
          (xy -1.651 1.778)
        )
        (stroke (width 0) (type default))
        (fill (type none))
      )
      (polyline
        (pts
          (xy 0.635 1.905)
          (xy 1.651 0.889)
          (xy 1.524 1.397)
        )
        (stroke (width 0) (type default))
        (fill (type none))
      )
      (polyline
        (pts
          (xy 1.016 2.667)
          (xy 2.032 1.651)
          (xy 1.905 2.159)
        )
        (stroke (width 0) (type default))
        (fill (type none))
      )
      (polyline
        (pts
          (xy 2.667 1.016)
          (xy 2.667 -1.016)
          (xy 2.667 -1.016)
        )
        (stroke (width 0.3556) (type default))
        (fill (type none))
      )
      (polyline
        (pts
          (xy 3.81 -1.27)
          (xy 3.81 -2.54)
          (xy 5.08 -2.54)
        )
        (stroke (width 0) (type default))
        (fill (type none))
      )
      (polyline
        (pts
          (xy 3.81 1.27)
          (xy 3.81 2.54)
          (xy 5.08 2.54)
        )
        (stroke (width 0) (type default))
        (fill (type none))
      )
      (polyline
        (pts
          (xy -5.08 -2.54)
          (xy -3.175 -2.54)
          (xy -3.175 2.54)
          (xy -5.08 2.54)
        )
        (stroke (width 0) (type default))
        (fill (type none))
      )
      (polyline
        (pts
          (xy -3.175 -0.635)
          (xy -3.81 0.635)
          (xy -2.54 0.635)
          (xy -3.175 -0.635)
        )
        (stroke (width 0.254) (type default))
        (fill (type none))
      )
      (polyline
        (pts
          (xy 3.81 -1.27)
          (xy 3.556 -0.762)
          (xy 3.302 -1.016)
          (xy 3.81 -1.27)
        )
        (stroke (width 0) (type default))
        (fill (type none))
      )
      (polyline
        (pts
          (xy -5.08 -3.81)
          (xy 5.08 -3.81)
          (xy 5.08 3.81)
          (xy -5.08 3.81)
          (xy -5.08 -3.81)
        )
        (stroke (width 0.254) (type default))
        (fill (type background))
      )
    )
    (symbol "ITR20001_1_1"
      (pin passive line (at -7.62 2.54 0) (length 2.54)
        (name "A" (effects (font (size 1.27 1.27))))
        (number "1" (effects (font (size 1.27 1.27))))
      )
      (pin passive line (at -7.62 -2.54 0) (length 2.54)
        (name "C" (effects (font (size 1.27 1.27))))
        (number "2" (effects (font (size 1.27 1.27))))
      )
      (pin open_emitter line (at 7.62 -2.54 180) (length 2.54)
        (name "E" (effects (font (size 1.27 1.27))))
        (number "3" (effects (font (size 1.27 1.27))))
      )
      (pin unspecified line (at 7.62 2.54 180) (length 2.54)
        (name "C" (effects (font (size 1.27 1.27))))
        (number "4" (effects (font (size 1.27 1.27))))
      )
    )
  )
  (symbol "VL6180" (in_bom yes) (on_board yes)
    (property "Reference" "U?" (at 0 10.16 0)
      (effects (font (size 1.27 1.27)))
    )
    (property "Value" "VL6180" (at 0 0 0)
      (effects (font (size 1.27 1.27)))
    )
    (property "Footprint" "micromouse sensor:VL6180" (at 0 0 0)
      (effects (font (size 1.27 1.27)) hide)
    )
    (property "Datasheet" "" (at 0 0 0)
      (effects (font (size 1.27 1.27)) hide)
    )
    (symbol "VL6180_1_1"
      (rectangle (start -10.16 8.89) (end 10.16 -8.89)
        (stroke (width 0) (type default))
        (fill (type background))
      )
      (pin open_collector line (at -12.7 6.35 0) (length 2.54)
        (name "GPIO1" (effects (font (size 1.27 1.27))))
        (number "1" (effects (font (size 1.27 1.27))))
      )
      (pin power_in line (at 12.7 1.27 180) (length 2.54)
        (name "AVDD" (effects (font (size 1.27 1.27))))
        (number "10" (effects (font (size 1.27 1.27))))
      )
      (pin no_connect line (at 12.7 3.81 180) (length 2.54)
        (name "NC" (effects (font (size 1.27 1.27))))
        (number "11" (effects (font (size 1.27 1.27))))
      )
      (pin power_in line (at 12.7 6.35 180) (length 2.54)
        (name "GND" (effects (font (size 1.27 1.27))))
        (number "12" (effects (font (size 1.27 1.27))))
      )
      (pin no_connect line (at -12.7 3.81 0) (length 2.54)
        (name "NC" (effects (font (size 1.27 1.27))))
        (number "2" (effects (font (size 1.27 1.27))))
      )
      (pin no_connect line (at -12.7 1.27 0) (length 2.54)
        (name "NC" (effects (font (size 1.27 1.27))))
        (number "3" (effects (font (size 1.27 1.27))))
      )
      (pin open_collector line (at -12.7 -1.27 0) (length 2.54)
        (name "GPIO0" (effects (font (size 1.27 1.27))))
        (number "4" (effects (font (size 1.27 1.27))))
      )
      (pin open_collector line (at -12.7 -3.81 0) (length 2.54)
        (name "SCL" (effects (font (size 1.27 1.27))))
        (number "5" (effects (font (size 1.27 1.27))))
      )
      (pin open_collector line (at -12.7 -6.35 0) (length 2.54)
        (name "SDA" (effects (font (size 1.27 1.27))))
        (number "6" (effects (font (size 1.27 1.27))))
      )
      (pin no_connect line (at 12.7 -6.35 180) (length 2.54)
        (name "NC" (effects (font (size 1.27 1.27))))
        (number "7" (effects (font (size 1.27 1.27))))
      )
      (pin power_in line (at 12.7 -3.81 180) (length 2.54)
        (name "AVDD_VCSEL" (effects (font (size 1.27 1.27))))
        (number "8" (effects (font (size 1.27 1.27))))
      )
      (pin power_in line (at 12.7 -1.27 180) (length 2.54)
        (name "AVSS_VCSEL" (effects (font (size 1.27 1.27))))
        (number "9" (effects (font (size 1.27 1.27))))
      )
    )
  )
)
