%TF.GenerationSoftware,KiCad,Pcbnew,7.0.10*%
%TF.CreationDate,2024-02-16T11:07:02+01:00*%
%TF.ProjectId,micromouse sensor board,6d696372-6f6d-46f7-9573-652073656e73,rev?*%
%TF.SameCoordinates,Original*%
%TF.FileFunction,Paste,Bot*%
%TF.FilePolarity,Positive*%
%FSLAX46Y46*%
G04 Gerber Fmt 4.6, Leading zero omitted, Abs format (unit mm)*
G04 Created by KiCad (PCBNEW 7.0.10) date 2024-02-16 11:07:02*
%MOMM*%
%LPD*%
G01*
G04 APERTURE LIST*
G04 Aperture macros list*
%AMRoundRect*
0 Rectangle with rounded corners*
0 $1 Rounding radius*
0 $2 $3 $4 $5 $6 $7 $8 $9 X,Y pos of 4 corners*
0 Add a 4 corners polygon primitive as box body*
4,1,4,$2,$3,$4,$5,$6,$7,$8,$9,$2,$3,0*
0 Add four circle primitives for the rounded corners*
1,1,$1+$1,$2,$3*
1,1,$1+$1,$4,$5*
1,1,$1+$1,$6,$7*
1,1,$1+$1,$8,$9*
0 Add four rect primitives between the rounded corners*
20,1,$1+$1,$2,$3,$4,$5,0*
20,1,$1+$1,$4,$5,$6,$7,0*
20,1,$1+$1,$6,$7,$8,$9,0*
20,1,$1+$1,$8,$9,$2,$3,0*%
G04 Aperture macros list end*
%ADD10RoundRect,0.135000X-0.135000X-0.185000X0.135000X-0.185000X0.135000X0.185000X-0.135000X0.185000X0*%
%ADD11RoundRect,0.140000X0.140000X0.170000X-0.140000X0.170000X-0.140000X-0.170000X0.140000X-0.170000X0*%
%ADD12RoundRect,0.135000X0.135000X0.185000X-0.135000X0.185000X-0.135000X-0.185000X0.135000X-0.185000X0*%
%ADD13RoundRect,0.135000X-0.185000X0.135000X-0.185000X-0.135000X0.185000X-0.135000X0.185000X0.135000X0*%
%ADD14RoundRect,0.140000X0.170000X-0.140000X0.170000X0.140000X-0.170000X0.140000X-0.170000X-0.140000X0*%
%ADD15RoundRect,0.140000X-0.170000X0.140000X-0.170000X-0.140000X0.170000X-0.140000X0.170000X0.140000X0*%
%ADD16RoundRect,0.140000X-0.140000X-0.170000X0.140000X-0.170000X0.140000X0.170000X-0.140000X0.170000X0*%
%ADD17RoundRect,0.135000X0.185000X-0.135000X0.185000X0.135000X-0.185000X0.135000X-0.185000X-0.135000X0*%
%ADD18RoundRect,0.150000X0.150000X-0.587500X0.150000X0.587500X-0.150000X0.587500X-0.150000X-0.587500X0*%
%ADD19RoundRect,0.200000X0.200000X0.275000X-0.200000X0.275000X-0.200000X-0.275000X0.200000X-0.275000X0*%
G04 APERTURE END LIST*
D10*
%TO.C,R11*%
X6640000Y18500000D03*
X7660000Y18500000D03*
%TD*%
D11*
%TO.C,C2*%
X786568Y6773430D03*
X-173432Y6773430D03*
%TD*%
D10*
%TO.C,R13*%
X6640000Y17500000D03*
X7660000Y17500000D03*
%TD*%
D12*
%TO.C,R4*%
X-740000Y11750000D03*
X-1760000Y11750000D03*
%TD*%
D13*
%TO.C,R14*%
X7890000Y8510000D03*
X7890000Y7490000D03*
%TD*%
D14*
%TO.C,C4*%
X10250000Y8020000D03*
X10250000Y8980000D03*
%TD*%
D15*
%TO.C,C8*%
X1950000Y12566000D03*
X1950000Y11606000D03*
%TD*%
D16*
%TO.C,C11*%
X2770000Y19000000D03*
X3730000Y19000000D03*
%TD*%
D15*
%TO.C,C1*%
X8890000Y8480000D03*
X8890000Y7520000D03*
%TD*%
D12*
%TO.C,R9*%
X2209999Y14586000D03*
X1189999Y14586000D03*
%TD*%
D15*
%TO.C,C6*%
X3449999Y14566000D03*
X3449999Y13606000D03*
%TD*%
D11*
%TO.C,C9*%
X2179999Y13585999D03*
X1219999Y13585999D03*
%TD*%
D14*
%TO.C,C7*%
X950000Y11606000D03*
X950000Y12566000D03*
%TD*%
D12*
%TO.C,R2*%
X5709999Y12586001D03*
X4689999Y12586001D03*
%TD*%
D10*
%TO.C,R12*%
X6640000Y16500000D03*
X7660000Y16500000D03*
%TD*%
D16*
%TO.C,C10*%
X2770000Y17425000D03*
X3730000Y17425000D03*
%TD*%
D17*
%TO.C,R8*%
X-1750000Y5740000D03*
X-1750000Y6760000D03*
%TD*%
%TO.C,R7*%
X4449999Y13576000D03*
X4449999Y14596000D03*
%TD*%
D18*
%TO.C,Q1*%
X440000Y8262500D03*
X-1460000Y8262500D03*
X-510000Y10137500D03*
%TD*%
D10*
%TO.C,R10*%
X6640000Y19500000D03*
X7660000Y19500000D03*
%TD*%
D11*
%TO.C,C3*%
X786568Y5773429D03*
X-173432Y5773429D03*
%TD*%
D19*
%TO.C,R5*%
X7475000Y11300000D03*
X5825000Y11300000D03*
%TD*%
D15*
%TO.C,C5*%
X9250000Y10980000D03*
X9250000Y10020000D03*
%TD*%
M02*
