%TF.GenerationSoftware,KiCad,Pcbnew,7.0.10*%
%TF.CreationDate,2024-02-16T11:07:02+01:00*%
%TF.ProjectId,micromouse sensor board,6d696372-6f6d-46f7-9573-652073656e73,rev?*%
%TF.SameCoordinates,Original*%
%TF.FileFunction,Copper,L4,Bot*%
%TF.FilePolarity,Positive*%
%FSLAX46Y46*%
G04 Gerber Fmt 4.6, Leading zero omitted, Abs format (unit mm)*
G04 Created by KiCad (PCBNEW 7.0.10) date 2024-02-16 11:07:02*
%MOMM*%
%LPD*%
G01*
G04 APERTURE LIST*
G04 Aperture macros list*
%AMRoundRect*
0 Rectangle with rounded corners*
0 $1 Rounding radius*
0 $2 $3 $4 $5 $6 $7 $8 $9 X,Y pos of 4 corners*
0 Add a 4 corners polygon primitive as box body*
4,1,4,$2,$3,$4,$5,$6,$7,$8,$9,$2,$3,0*
0 Add four circle primitives for the rounded corners*
1,1,$1+$1,$2,$3*
1,1,$1+$1,$4,$5*
1,1,$1+$1,$6,$7*
1,1,$1+$1,$8,$9*
0 Add four rect primitives between the rounded corners*
20,1,$1+$1,$2,$3,$4,$5,0*
20,1,$1+$1,$4,$5,$6,$7,0*
20,1,$1+$1,$6,$7,$8,$9,0*
20,1,$1+$1,$8,$9,$2,$3,0*%
%AMRotRect*
0 Rectangle, with rotation*
0 The origin of the aperture is its center*
0 $1 length*
0 $2 width*
0 $3 Rotation angle, in degrees counterclockwise*
0 Add horizontal line*
21,1,$1,$2,0,0,$3*%
G04 Aperture macros list end*
%TA.AperFunction,ComponentPad*%
%ADD10R,1.800000X1.800000*%
%TD*%
%TA.AperFunction,ComponentPad*%
%ADD11C,1.800000*%
%TD*%
%TA.AperFunction,SMDPad,CuDef*%
%ADD12RoundRect,0.135000X-0.135000X-0.185000X0.135000X-0.185000X0.135000X0.185000X-0.135000X0.185000X0*%
%TD*%
%TA.AperFunction,SMDPad,CuDef*%
%ADD13RoundRect,0.140000X0.140000X0.170000X-0.140000X0.170000X-0.140000X-0.170000X0.140000X-0.170000X0*%
%TD*%
%TA.AperFunction,SMDPad,CuDef*%
%ADD14RoundRect,0.135000X0.135000X0.185000X-0.135000X0.185000X-0.135000X-0.185000X0.135000X-0.185000X0*%
%TD*%
%TA.AperFunction,SMDPad,CuDef*%
%ADD15RoundRect,0.135000X-0.185000X0.135000X-0.185000X-0.135000X0.185000X-0.135000X0.185000X0.135000X0*%
%TD*%
%TA.AperFunction,SMDPad,CuDef*%
%ADD16RoundRect,0.140000X0.170000X-0.140000X0.170000X0.140000X-0.170000X0.140000X-0.170000X-0.140000X0*%
%TD*%
%TA.AperFunction,SMDPad,CuDef*%
%ADD17RotRect,1.000000X1.000000X156.500000*%
%TD*%
%TA.AperFunction,SMDPad,CuDef*%
%ADD18RoundRect,0.140000X-0.170000X0.140000X-0.170000X-0.140000X0.170000X-0.140000X0.170000X0.140000X0*%
%TD*%
%TA.AperFunction,SMDPad,CuDef*%
%ADD19RotRect,1.000000X1.000000X23.500000*%
%TD*%
%TA.AperFunction,SMDPad,CuDef*%
%ADD20RoundRect,0.140000X-0.140000X-0.170000X0.140000X-0.170000X0.140000X0.170000X-0.140000X0.170000X0*%
%TD*%
%TA.AperFunction,SMDPad,CuDef*%
%ADD21RoundRect,0.135000X0.185000X-0.135000X0.185000X0.135000X-0.185000X0.135000X-0.185000X-0.135000X0*%
%TD*%
%TA.AperFunction,SMDPad,CuDef*%
%ADD22RoundRect,0.150000X0.150000X-0.587500X0.150000X0.587500X-0.150000X0.587500X-0.150000X-0.587500X0*%
%TD*%
%TA.AperFunction,SMDPad,CuDef*%
%ADD23RoundRect,0.200000X0.200000X0.275000X-0.200000X0.275000X-0.200000X-0.275000X0.200000X-0.275000X0*%
%TD*%
%TA.AperFunction,ViaPad*%
%ADD24C,0.500000*%
%TD*%
%TA.AperFunction,ViaPad*%
%ADD25C,0.800000*%
%TD*%
%TA.AperFunction,Conductor*%
%ADD26C,0.200000*%
%TD*%
%TA.AperFunction,Conductor*%
%ADD27C,0.254000*%
%TD*%
G04 APERTURE END LIST*
D10*
%TO.P,U2,1,A*%
%TO.N,+6V*%
X3350000Y6730000D03*
D11*
%TO.P,U2,2,C*%
%TO.N,Net-(R4-Pad1)*%
X3350000Y9270000D03*
%TO.P,U2,3,E*%
%TO.N,Net-(U2-E)*%
X6150000Y9270000D03*
%TO.P,U2,4,C*%
%TO.N,Net-(R14-Pad2)*%
X6150000Y6730000D03*
%TD*%
D12*
%TO.P,R11,1*%
%TO.N,+2V8*%
X6640000Y18500000D03*
%TO.P,R11,2*%
%TO.N,/SCL*%
X7660000Y18500000D03*
%TD*%
D13*
%TO.P,C2,1*%
%TO.N,+6V*%
X786568Y6773430D03*
%TO.P,C2,2*%
%TO.N,GND*%
X-173432Y6773430D03*
%TD*%
D12*
%TO.P,R13,1*%
%TO.N,+2V8*%
X6640000Y17500000D03*
%TO.P,R13,2*%
%TO.N,Net-(U4-GPIO0)*%
X7660000Y17500000D03*
%TD*%
D14*
%TO.P,R4,1*%
%TO.N,Net-(R4-Pad1)*%
X-740000Y11750000D03*
%TO.P,R4,2*%
%TO.N,Net-(Q1-C)*%
X-1760000Y11750000D03*
%TD*%
D15*
%TO.P,R14,1*%
%TO.N,+6V*%
X7890000Y8510000D03*
%TO.P,R14,2*%
%TO.N,Net-(R14-Pad2)*%
X7890000Y7490000D03*
%TD*%
D16*
%TO.P,C4,1*%
%TO.N,+6V*%
X10250000Y8020000D03*
%TO.P,C4,2*%
%TO.N,GND*%
X10250000Y8980000D03*
%TD*%
D17*
%TO.P,TP1,1,1*%
%TO.N,GND*%
X-1010000Y15975590D03*
%TD*%
D18*
%TO.P,C8,1*%
%TO.N,+2V8*%
X1950000Y12566000D03*
%TO.P,C8,2*%
%TO.N,GND*%
X1950000Y11606000D03*
%TD*%
D19*
%TO.P,TP3,1,1*%
%TO.N,/SCL*%
X10491875Y15975590D03*
%TD*%
D20*
%TO.P,C11,1*%
%TO.N,+2V8*%
X2770000Y19000000D03*
%TO.P,C11,2*%
%TO.N,GND*%
X3730000Y19000000D03*
%TD*%
D18*
%TO.P,C1,1*%
%TO.N,+6V*%
X8890000Y8480000D03*
%TO.P,C1,2*%
%TO.N,GND*%
X8890000Y7520000D03*
%TD*%
D19*
%TO.P,TP2,1,1*%
%TO.N,/GPIO1*%
X11090000Y14600000D03*
%TD*%
D14*
%TO.P,R9,1*%
%TO.N,Net-(U3--)*%
X2209999Y14586000D03*
%TO.P,R9,2*%
%TO.N,/IR Receive*%
X1189999Y14586000D03*
%TD*%
D18*
%TO.P,C6,1*%
%TO.N,Net-(C6-Pad1)*%
X3449999Y14566000D03*
%TO.P,C6,2*%
%TO.N,Net-(U3--)*%
X3449999Y13606000D03*
%TD*%
D17*
%TO.P,TP5,1,1*%
%TO.N,+2V8*%
X-1608123Y14600001D03*
%TD*%
D13*
%TO.P,C9,1*%
%TO.N,Net-(U3--)*%
X2179999Y13585999D03*
%TO.P,C9,2*%
%TO.N,/IR Receive*%
X1219999Y13585999D03*
%TD*%
D16*
%TO.P,C7,1*%
%TO.N,+6V*%
X950000Y11606000D03*
%TO.P,C7,2*%
%TO.N,+2V8*%
X950000Y12566000D03*
%TD*%
D19*
%TO.P,TP4,1,1*%
%TO.N,/SDA*%
X9893752Y17351180D03*
%TD*%
D14*
%TO.P,R2,1*%
%TO.N,Net-(U2-E)*%
X5709999Y12586001D03*
%TO.P,R2,2*%
%TO.N,Net-(U3-+)*%
X4689999Y12586001D03*
%TD*%
D12*
%TO.P,R12,1*%
%TO.N,+2V8*%
X6640000Y16500000D03*
%TO.P,R12,2*%
%TO.N,/GPIO1*%
X7660000Y16500000D03*
%TD*%
D20*
%TO.P,C10,1*%
%TO.N,+2V8*%
X2770000Y17425000D03*
%TO.P,C10,2*%
%TO.N,GND*%
X3730000Y17425000D03*
%TD*%
D21*
%TO.P,R8,1*%
%TO.N,/IR Transmit*%
X-1750000Y5740000D03*
%TO.P,R8,2*%
%TO.N,Net-(Q1-B)*%
X-1750000Y6760000D03*
%TD*%
%TO.P,R7,1*%
%TO.N,+2V8*%
X4449999Y13576000D03*
%TO.P,R7,2*%
%TO.N,Net-(C6-Pad1)*%
X4449999Y14596000D03*
%TD*%
D22*
%TO.P,Q1,1,B*%
%TO.N,Net-(Q1-B)*%
X440000Y8262500D03*
%TO.P,Q1,2,E*%
%TO.N,GND*%
X-1460000Y8262500D03*
%TO.P,Q1,3,C*%
%TO.N,Net-(Q1-C)*%
X-510000Y10137500D03*
%TD*%
D12*
%TO.P,R10,1*%
%TO.N,+2V8*%
X6640000Y19500000D03*
%TO.P,R10,2*%
%TO.N,/SDA*%
X7660000Y19500000D03*
%TD*%
D13*
%TO.P,C3,1*%
%TO.N,+6V*%
X786568Y5773429D03*
%TO.P,C3,2*%
%TO.N,GND*%
X-173432Y5773429D03*
%TD*%
D23*
%TO.P,R5,1*%
%TO.N,Net-(U2-E)*%
X7475000Y11300000D03*
%TO.P,R5,2*%
%TO.N,+2V8*%
X5825000Y11300000D03*
%TD*%
D18*
%TO.P,C5,1*%
%TO.N,+2V8*%
X9250000Y10980000D03*
%TO.P,C5,2*%
%TO.N,GND*%
X9250000Y10020000D03*
%TD*%
D24*
%TO.N,/GPIO1*%
X8750000Y15900000D03*
X6000000Y5000000D03*
%TO.N,Net-(U3--)*%
X2699999Y14086000D03*
%TO.N,/IR Receive*%
X2000000Y5000000D03*
X449999Y14086000D03*
%TO.N,/SCL*%
X8790000Y16900000D03*
X8750000Y18900000D03*
X4770000Y5000000D03*
%TO.N,/SDA*%
X3500000Y5000000D03*
X8750000Y19700000D03*
%TO.N,/IR Transmit*%
X-1050000Y5100000D03*
%TO.N,+2V8*%
X550000Y19700000D03*
X2100000Y18950000D03*
X2100000Y17450000D03*
X5250000Y10500000D03*
D25*
X4750000Y19900000D03*
X10250000Y10500000D03*
X9150000Y13900000D03*
%TO.N,+6V*%
X11176500Y8140000D03*
X-50000Y12300000D03*
X7950000Y5900000D03*
D24*
%TO.N,Net-(U2-E)*%
X6911397Y12336000D03*
%TO.N,Net-(U3-+)*%
X3699999Y10836000D03*
%TO.N,GND*%
X2650000Y12100000D03*
X8460000Y9250000D03*
D25*
X4750000Y18000000D03*
D24*
X-800000Y6260000D03*
X-2140000Y8170000D03*
D25*
X11250000Y9250000D03*
D24*
X8390000Y6900000D03*
%TO.N,Net-(C6-Pad1)*%
X5390000Y14600000D03*
%TO.N,Net-(U4-GPIO0)*%
X8750000Y18100000D03*
%TD*%
D26*
%TO.N,/GPIO1*%
X8750000Y15900000D02*
X10050000Y14600000D01*
X10050000Y14600000D02*
X11090000Y14600000D01*
X8150000Y16500000D02*
X8750000Y15900000D01*
X7660000Y16500000D02*
X8150000Y16500000D01*
%TO.N,Net-(U3--)*%
X2969999Y14086000D02*
X2699999Y14086000D01*
X2694999Y14101000D02*
X2179999Y13586000D01*
X2209999Y14586000D02*
X2694999Y14101000D01*
X3449997Y13606000D02*
X2969999Y14086000D01*
%TO.N,/IR Receive*%
X449999Y14086000D02*
X689999Y14086000D01*
X689999Y14086000D02*
X1189999Y14586000D01*
X719999Y14086000D02*
X1219999Y13586000D01*
X449999Y14086000D02*
X719999Y14086000D01*
%TO.N,/SCL*%
X10491875Y15975590D02*
X9714410Y15975590D01*
X8350000Y18500000D02*
X8750000Y18900000D01*
X9714410Y15975590D02*
X8790000Y16900000D01*
X7660000Y18500000D02*
X8350000Y18500000D01*
%TO.N,/SDA*%
X8550000Y19500000D02*
X8750000Y19700000D01*
X7660000Y19500000D02*
X8550000Y19500000D01*
X9390000Y19060000D02*
X8750000Y19700000D01*
X8890000Y19700000D02*
X8750000Y19700000D01*
X9390000Y18500000D02*
X9390000Y19060000D01*
X9893752Y17996248D02*
X9390000Y18500000D01*
X9893752Y17351180D02*
X9893752Y17996248D01*
%TO.N,/IR Transmit*%
X-1050000Y5100000D02*
X-1110000Y5100000D01*
X-1110000Y5100000D02*
X-1750000Y5740000D01*
%TO.N,+2V8*%
X4614000Y13576000D02*
X4449999Y13576000D01*
X5825000Y11300000D02*
X5212999Y11912001D01*
D27*
X9150000Y13990000D02*
X6640000Y16500000D01*
X2100000Y18950000D02*
X1000000Y18950000D01*
X2100000Y17450000D02*
X2745000Y17450000D01*
X1000000Y17450000D02*
X750000Y17700000D01*
X1000000Y18950000D02*
X750000Y18700000D01*
X750000Y17700000D02*
X750000Y18700000D01*
X2150000Y12566000D02*
X2656000Y13072000D01*
X10250000Y10500000D02*
X9730000Y10500000D01*
X2720000Y18950000D02*
X2770000Y19000000D01*
X2100000Y18950000D02*
X2720000Y18950000D01*
X4750000Y19900000D02*
X5150000Y19500000D01*
X5150000Y19500000D02*
X6640000Y19500000D01*
X2100000Y17450000D02*
X1000000Y17450000D01*
X550000Y19700000D02*
X550000Y19400000D01*
X-1608123Y14600001D02*
X-1084001Y14600001D01*
X1199999Y12566002D02*
X2149998Y12566002D01*
X5250000Y10725000D02*
X5825000Y11300000D01*
X6640000Y16500000D02*
X6640000Y19500000D01*
X9150000Y13900000D02*
X9150000Y13990000D01*
X2656000Y13072000D02*
X3945997Y13072000D01*
X2149998Y12566002D02*
X2150000Y12566000D01*
X9730000Y10500000D02*
X9250000Y10980000D01*
X-1084001Y14600001D02*
X950000Y12566000D01*
X550000Y19400000D02*
X1000000Y18950000D01*
X3945997Y13072000D02*
X4449999Y13576000D01*
X2745000Y17450000D02*
X2770000Y17425000D01*
X5250000Y10500000D02*
X5250000Y10725000D01*
D26*
X5212999Y11912001D02*
X5212999Y12977001D01*
X5212999Y12977001D02*
X4614000Y13576000D01*
D27*
%TO.N,+6V*%
X10370000Y8140000D02*
X10250000Y8020000D01*
X8890000Y8480000D02*
X9790000Y8480000D01*
X9790000Y8480000D02*
X10250000Y8020000D01*
X750000Y6730000D02*
X3350000Y6730000D01*
X10250000Y8020000D02*
X10250000Y7740001D01*
X8890000Y8480000D02*
X7920000Y8480000D01*
X643999Y11606001D02*
X1199999Y11606001D01*
X8409999Y5900000D02*
X7950000Y5900000D01*
X730000Y6750000D02*
X750000Y6730000D01*
X-50000Y12300000D02*
X643999Y11606001D01*
X10250000Y7740001D02*
X8409999Y5900000D01*
X7920000Y8480000D02*
X7890000Y8510000D01*
X730000Y5750000D02*
X730000Y6750000D01*
X11056500Y8020000D02*
X11176500Y8140000D01*
X11176500Y8140000D02*
X10370000Y8140000D01*
%TO.N,Net-(R4-Pad1)*%
X-740000Y11750000D02*
X1760000Y9250000D01*
X1760000Y9250000D02*
X3330000Y9250000D01*
X3330000Y9250000D02*
X3350000Y9270000D01*
D26*
%TO.N,Net-(U2-E)*%
X6661398Y12586001D02*
X5709999Y12586001D01*
X7260000Y10380000D02*
X7260000Y11000000D01*
X6150000Y9270000D02*
X7260000Y10380000D01*
X6911397Y12336000D02*
X6661398Y12586001D01*
X6911397Y12336000D02*
X6911397Y11348603D01*
X6911397Y11348603D02*
X7260000Y11000000D01*
%TO.N,Net-(U3-+)*%
X3699999Y10836000D02*
X4689999Y11825999D01*
X4689999Y11825999D02*
X4689999Y12586001D01*
%TO.N,GND*%
X2156000Y11606000D02*
X2650000Y12100000D01*
X1950000Y11606000D02*
X2156000Y11606000D01*
%TO.N,Net-(Q1-B)*%
X-699570Y7310430D02*
X-99570Y7310430D01*
X-1750000Y6760000D02*
X-1250000Y6760000D01*
X450000Y7860000D02*
X450000Y8250000D01*
X-1250000Y6760000D02*
X-699570Y7310430D01*
X-99570Y7310430D02*
X450000Y7860000D01*
D27*
%TO.N,Net-(Q1-C)*%
X-500000Y10125000D02*
X-500000Y10490000D01*
X-500000Y10490000D02*
X-1760000Y11750000D01*
D26*
%TO.N,Net-(C6-Pad1)*%
X3449999Y14566000D02*
X4419999Y14566001D01*
X4419999Y14566001D02*
X4449999Y14596000D01*
D27*
X5390000Y14600000D02*
X4453999Y14600000D01*
X4453999Y14600000D02*
X4449999Y14596000D01*
D26*
%TO.N,Net-(U4-GPIO0)*%
X8150000Y17500000D02*
X7660000Y17500000D01*
X8750000Y18100000D02*
X8150000Y17500000D01*
D27*
%TO.N,Net-(R14-Pad2)*%
X7890000Y7490000D02*
X6910000Y7490000D01*
X6910000Y7490000D02*
X6150000Y6730000D01*
%TD*%
%TA.AperFunction,Conductor*%
%TO.N,GND*%
G36*
X7940719Y20599370D02*
G01*
X8153245Y20585646D01*
X8161232Y20584610D01*
X8368253Y20544056D01*
X8376017Y20542009D01*
X8576116Y20475161D01*
X8583572Y20472123D01*
X8666236Y20432052D01*
X8773405Y20380102D01*
X8780400Y20376135D01*
X8932793Y20276218D01*
X8956815Y20260468D01*
X8963252Y20255627D01*
X9123321Y20118238D01*
X9129083Y20112609D01*
X9270160Y19955768D01*
X9275149Y19949445D01*
X9394879Y19775771D01*
X9399013Y19768860D01*
X9457177Y19655652D01*
X9496379Y19579352D01*
X9498104Y19575710D01*
X9516244Y19533988D01*
X9599223Y19343136D01*
X9600057Y19295308D01*
X9566826Y19260899D01*
X9518998Y19260065D01*
X9497712Y19274022D01*
X9170054Y19601680D01*
X9151748Y19645874D01*
X9152518Y19655652D01*
X9159542Y19699998D01*
X9159542Y19700000D01*
X9139498Y19826555D01*
X9081326Y19940723D01*
X8990723Y20031326D01*
X8876555Y20089498D01*
X8750000Y20109542D01*
X8623444Y20089498D01*
X8623443Y20089498D01*
X8509276Y20031326D01*
X8418674Y19940724D01*
X8360501Y19826554D01*
X8360500Y19826552D01*
X8353163Y19780223D01*
X8328169Y19739436D01*
X8291433Y19727500D01*
X8105482Y19727500D01*
X8061288Y19745806D01*
X8044183Y19777805D01*
X8043702Y19780223D01*
X8042270Y19787423D01*
X8022507Y19817000D01*
X7984252Y19874253D01*
X7897424Y19932270D01*
X7897422Y19932271D01*
X7820856Y19947500D01*
X7499144Y19947500D01*
X7422577Y19932271D01*
X7422575Y19932270D01*
X7335747Y19874253D01*
X7277730Y19787425D01*
X7277729Y19787423D01*
X7262500Y19710857D01*
X7262500Y19289144D01*
X7277729Y19212578D01*
X7277730Y19212576D01*
X7335747Y19125748D01*
X7422575Y19067731D01*
X7422577Y19067730D01*
X7454907Y19061299D01*
X7494681Y19034723D01*
X7504013Y18987807D01*
X7477437Y18948033D01*
X7454907Y18938701D01*
X7422577Y18932271D01*
X7422575Y18932270D01*
X7335747Y18874253D01*
X7277730Y18787425D01*
X7277729Y18787423D01*
X7262500Y18710857D01*
X7262500Y18289144D01*
X7277729Y18212578D01*
X7277730Y18212576D01*
X7335747Y18125748D01*
X7422575Y18067731D01*
X7422577Y18067730D01*
X7454907Y18061299D01*
X7494681Y18034723D01*
X7504013Y17987807D01*
X7477437Y17948033D01*
X7454907Y17938701D01*
X7422577Y17932271D01*
X7422575Y17932270D01*
X7335747Y17874253D01*
X7277730Y17787425D01*
X7277729Y17787423D01*
X7262500Y17710857D01*
X7262500Y17289144D01*
X7277729Y17212578D01*
X7277730Y17212576D01*
X7335747Y17125748D01*
X7422575Y17067731D01*
X7422577Y17067730D01*
X7454907Y17061299D01*
X7494681Y17034723D01*
X7504013Y16987807D01*
X7477437Y16948033D01*
X7454907Y16938701D01*
X7422577Y16932271D01*
X7422575Y16932270D01*
X7335747Y16874253D01*
X7277730Y16787425D01*
X7277729Y16787423D01*
X7262500Y16710857D01*
X7262500Y16388306D01*
X7244194Y16344112D01*
X7200000Y16325806D01*
X7155806Y16344112D01*
X7055806Y16444112D01*
X7037500Y16488306D01*
X7037500Y16710856D01*
X7022270Y16787423D01*
X6964252Y16874252D01*
X6964250Y16874253D01*
X6964250Y16874254D01*
X6964248Y16874256D01*
X6922276Y16902301D01*
X6895701Y16942075D01*
X6894500Y16954267D01*
X6894500Y17045735D01*
X6912806Y17089929D01*
X6922270Y17097698D01*
X6964252Y17125748D01*
X7022270Y17212577D01*
X7037500Y17289144D01*
X7037500Y17710856D01*
X7022270Y17787423D01*
X6964252Y17874252D01*
X6964250Y17874253D01*
X6964250Y17874254D01*
X6964248Y17874256D01*
X6922276Y17902301D01*
X6895701Y17942075D01*
X6894500Y17954267D01*
X6894500Y18045735D01*
X6912806Y18089929D01*
X6922270Y18097698D01*
X6964252Y18125748D01*
X7022270Y18212577D01*
X7037500Y18289144D01*
X7037500Y18710856D01*
X7022270Y18787423D01*
X6964252Y18874252D01*
X6964250Y18874253D01*
X6964250Y18874254D01*
X6964248Y18874256D01*
X6922276Y18902301D01*
X6895701Y18942075D01*
X6894500Y18954267D01*
X6894500Y19045735D01*
X6912806Y19089929D01*
X6922270Y19097698D01*
X6964252Y19125748D01*
X7022270Y19212577D01*
X7037500Y19289144D01*
X7037500Y19710856D01*
X7022270Y19787423D01*
X7022268Y19787426D01*
X6964252Y19874253D01*
X6877424Y19932270D01*
X6877422Y19932271D01*
X6800856Y19947500D01*
X6479144Y19947500D01*
X6402577Y19932271D01*
X6402575Y19932270D01*
X6315747Y19874253D01*
X6254310Y19782305D01*
X6251427Y19784231D01*
X6225543Y19758970D01*
X6202331Y19754500D01*
X5334164Y19754500D01*
X5289970Y19772806D01*
X5271664Y19817000D01*
X5272199Y19825158D01*
X5282052Y19899999D01*
X5282052Y19900002D01*
X5263924Y20037699D01*
X5263923Y20037702D01*
X5263923Y20037705D01*
X5210771Y20166026D01*
X5126218Y20276218D01*
X5016026Y20360771D01*
X4887705Y20413923D01*
X4887702Y20413924D01*
X4887701Y20413924D01*
X4887698Y20413925D01*
X4750002Y20432052D01*
X4749998Y20432052D01*
X4612301Y20413925D01*
X4612298Y20413924D01*
X4612295Y20413924D01*
X4612295Y20413923D01*
X4542599Y20385054D01*
X4483974Y20360771D01*
X4373782Y20276218D01*
X4289229Y20166026D01*
X4236076Y20037702D01*
X4236075Y20037699D01*
X4217948Y19900002D01*
X4217948Y19899999D01*
X4236075Y19762302D01*
X4236076Y19762299D01*
X4236077Y19762295D01*
X4289229Y19633974D01*
X4373782Y19523782D01*
X4483974Y19439229D01*
X4612295Y19386077D01*
X4612299Y19386077D01*
X4612301Y19386076D01*
X4749998Y19367948D01*
X4750000Y19367948D01*
X4750002Y19367948D01*
X4871552Y19383950D01*
X4917758Y19371569D01*
X4923904Y19366179D01*
X4947963Y19342120D01*
X4955736Y19332649D01*
X4966513Y19316519D01*
X4966514Y19316518D01*
X4966516Y19316516D01*
X4987765Y19302318D01*
X4987766Y19302317D01*
X5004242Y19291308D01*
X5050699Y19260266D01*
X5127934Y19244903D01*
X5127954Y19244900D01*
X5149999Y19240515D01*
X5149999Y19240516D01*
X5150000Y19240515D01*
X5169025Y19244300D01*
X5181217Y19245500D01*
X6202331Y19245500D01*
X6246525Y19227194D01*
X6253378Y19217073D01*
X6254310Y19217695D01*
X6315745Y19125751D01*
X6315748Y19125748D01*
X6357724Y19097701D01*
X6384299Y19057929D01*
X6385500Y19045735D01*
X6385500Y18954267D01*
X6367194Y18910073D01*
X6357724Y18902301D01*
X6315751Y18874256D01*
X6315749Y18874254D01*
X6257729Y18787422D01*
X6242500Y18710857D01*
X6242500Y18289144D01*
X6257729Y18212578D01*
X6257730Y18212576D01*
X6315745Y18125751D01*
X6315748Y18125748D01*
X6357724Y18097701D01*
X6384299Y18057929D01*
X6385500Y18045735D01*
X6385500Y17954267D01*
X6367194Y17910073D01*
X6357724Y17902301D01*
X6315751Y17874256D01*
X6315749Y17874254D01*
X6257729Y17787422D01*
X6242500Y17710857D01*
X6242500Y17289144D01*
X6257729Y17212578D01*
X6257730Y17212576D01*
X6315745Y17125751D01*
X6315748Y17125748D01*
X6357724Y17097701D01*
X6384299Y17057929D01*
X6385500Y17045735D01*
X6385500Y16954267D01*
X6367194Y16910073D01*
X6357724Y16902301D01*
X6315751Y16874256D01*
X6315749Y16874254D01*
X6257729Y16787422D01*
X6242500Y16710857D01*
X6242500Y16289144D01*
X6257729Y16212578D01*
X6257730Y16212576D01*
X6315747Y16125748D01*
X6402575Y16067731D01*
X6402577Y16067730D01*
X6479144Y16052500D01*
X6701694Y16052500D01*
X6745888Y16034194D01*
X8637681Y14142401D01*
X8655987Y14098207D01*
X8651230Y14074291D01*
X8636078Y14037709D01*
X8636075Y14037699D01*
X8617948Y13900002D01*
X8617948Y13899999D01*
X8636075Y13762302D01*
X8636076Y13762299D01*
X8636077Y13762295D01*
X8689229Y13633974D01*
X8773782Y13523782D01*
X8883974Y13439229D01*
X9012295Y13386077D01*
X9012299Y13386077D01*
X9012301Y13386076D01*
X9149998Y13367948D01*
X9150000Y13367948D01*
X9150002Y13367948D01*
X9287698Y13386076D01*
X9287698Y13386077D01*
X9287705Y13386077D01*
X9416026Y13439229D01*
X9526218Y13523782D01*
X9610771Y13633974D01*
X9663923Y13762295D01*
X9663924Y13762302D01*
X9682052Y13899999D01*
X9682052Y13900002D01*
X9663924Y14037699D01*
X9663923Y14037702D01*
X9663923Y14037705D01*
X9610771Y14166026D01*
X9526218Y14276218D01*
X9416026Y14360771D01*
X9287705Y14413923D01*
X9287702Y14413924D01*
X9287701Y14413924D01*
X9287698Y14413925D01*
X9150002Y14432052D01*
X9149996Y14432052D01*
X9107976Y14426521D01*
X9061771Y14438902D01*
X9055626Y14444292D01*
X7554112Y15945806D01*
X7535806Y15990000D01*
X7554112Y16034194D01*
X7598306Y16052500D01*
X7820856Y16052500D01*
X7897423Y16067730D01*
X7984252Y16125748D01*
X8029368Y16193270D01*
X8069140Y16219844D01*
X8116057Y16210512D01*
X8125526Y16202741D01*
X8329945Y15998321D01*
X8348251Y15954128D01*
X8347482Y15944352D01*
X8340458Y15900001D01*
X8360502Y15773445D01*
X8360502Y15773444D01*
X8392568Y15710512D01*
X8418674Y15659277D01*
X8509277Y15568674D01*
X8623445Y15510502D01*
X8750000Y15490458D01*
X8750001Y15490459D01*
X8750003Y15490458D01*
X8794350Y15497482D01*
X8840863Y15486316D01*
X8848321Y15479946D01*
X9883762Y14444505D01*
X9886015Y14442131D01*
X9913290Y14411839D01*
X9913292Y14411837D01*
X9936620Y14401451D01*
X9945239Y14396771D01*
X9966651Y14382866D01*
X9976699Y14381275D01*
X9992342Y14376641D01*
X9996562Y14374762D01*
X10001643Y14372500D01*
X10027178Y14372500D01*
X10036956Y14371730D01*
X10062172Y14367736D01*
X10072002Y14370371D01*
X10088180Y14372500D01*
X10463691Y14372500D01*
X10507885Y14354194D01*
X10521007Y14334922D01*
X10718927Y13879737D01*
X10740540Y13848584D01*
X10740541Y13848583D01*
X10783200Y13821144D01*
X10820634Y13814375D01*
X10833112Y13812118D01*
X10833112Y13812119D01*
X10833113Y13812118D01*
X10870169Y13820163D01*
X11759021Y14206648D01*
X11806848Y14207482D01*
X11841258Y14174253D01*
X11842461Y14171281D01*
X11868605Y14101581D01*
X11870544Y14095476D01*
X11913075Y13933198D01*
X11914379Y13926930D01*
X11938339Y13772348D01*
X11940074Y13761156D01*
X11940729Y13754784D01*
X11949417Y13585365D01*
X11949499Y13582163D01*
X11949498Y13531420D01*
X11949500Y13531395D01*
X11949500Y5503070D01*
X11949199Y5496944D01*
X11936662Y5369662D01*
X11934272Y5357646D01*
X11898040Y5238203D01*
X11893351Y5226882D01*
X11834515Y5116809D01*
X11827708Y5106622D01*
X11748525Y5010138D01*
X11739862Y5001475D01*
X11643378Y4922292D01*
X11633191Y4915485D01*
X11523118Y4856649D01*
X11511797Y4851960D01*
X11392354Y4815728D01*
X11380338Y4813338D01*
X11253056Y4800801D01*
X11246930Y4800500D01*
X10505635Y4800500D01*
X10488532Y4802886D01*
X10485241Y4803823D01*
X10483204Y4804402D01*
X10443989Y4800767D01*
X10438222Y4800500D01*
X10427156Y4800500D01*
X10416271Y4798466D01*
X10410567Y4797671D01*
X10371342Y4794036D01*
X10371339Y4794035D01*
X10366376Y4791564D01*
X10350014Y4786080D01*
X10344568Y4785062D01*
X10344567Y4785062D01*
X10311073Y4764324D01*
X10306033Y4761517D01*
X10270773Y4743959D01*
X10270772Y4743958D01*
X10267037Y4739863D01*
X10253758Y4728836D01*
X10249049Y4725921D01*
X10249047Y4725919D01*
X10225308Y4694484D01*
X10221622Y4690045D01*
X10195083Y4660932D01*
X10195082Y4660931D01*
X10193079Y4655761D01*
X10184685Y4640690D01*
X10181345Y4636267D01*
X10181345Y4636266D01*
X10170565Y4598382D01*
X10168731Y4592912D01*
X10154500Y4556175D01*
X10154500Y4550636D01*
X10152114Y4533533D01*
X10150598Y4528207D01*
X10154233Y4488991D01*
X10154500Y4483223D01*
X10154500Y617206D01*
X10146137Y585974D01*
X9999481Y331768D01*
X9961540Y302635D01*
X9945344Y300500D01*
X554656Y300500D01*
X510462Y318806D01*
X500519Y331767D01*
X500518Y331768D01*
X407987Y492156D01*
X353863Y585972D01*
X345500Y617205D01*
X345500Y4449364D01*
X347886Y4466468D01*
X348216Y4467630D01*
X349401Y4471793D01*
X348074Y4486109D01*
X345767Y4511011D01*
X345500Y4516778D01*
X345500Y4527843D01*
X345499Y4527853D01*
X343466Y4538725D01*
X342671Y4544418D01*
X339035Y4583660D01*
X336565Y4588620D01*
X331078Y4604994D01*
X330062Y4610429D01*
X330061Y4610431D01*
X330061Y4610433D01*
X309328Y4643918D01*
X306518Y4648962D01*
X288958Y4684228D01*
X284865Y4687959D01*
X273831Y4701248D01*
X270919Y4705952D01*
X270916Y4705955D01*
X239489Y4729687D01*
X235047Y4733375D01*
X205933Y4759916D01*
X205930Y4759918D01*
X200765Y4761919D01*
X185684Y4770319D01*
X181265Y4773656D01*
X143381Y4784435D01*
X137909Y4786269D01*
X101173Y4800500D01*
X95635Y4800500D01*
X78532Y4802886D01*
X75241Y4803823D01*
X73204Y4804402D01*
X33989Y4800767D01*
X28222Y4800500D01*
X-646631Y4800500D01*
X-690825Y4818806D01*
X-709131Y4863000D01*
X-702319Y4891374D01*
X-660504Y4973441D01*
X-660504Y4973442D01*
X-660502Y4973445D01*
X-656296Y5000000D01*
X1590458Y5000000D01*
X1610502Y4873445D01*
X1610502Y4873444D01*
X1649111Y4797671D01*
X1668674Y4759277D01*
X1759277Y4668674D01*
X1873445Y4610502D01*
X2000000Y4590458D01*
X2126555Y4610502D01*
X2240723Y4668674D01*
X2331326Y4759277D01*
X2389498Y4873445D01*
X2409542Y5000000D01*
X3090458Y5000000D01*
X3110502Y4873445D01*
X3110502Y4873444D01*
X3149111Y4797671D01*
X3168674Y4759277D01*
X3259277Y4668674D01*
X3373445Y4610502D01*
X3500000Y4590458D01*
X3626555Y4610502D01*
X3740723Y4668674D01*
X3831326Y4759277D01*
X3889498Y4873445D01*
X3909542Y5000000D01*
X4360458Y5000000D01*
X4380502Y4873445D01*
X4380502Y4873444D01*
X4419111Y4797671D01*
X4438674Y4759277D01*
X4529277Y4668674D01*
X4643445Y4610502D01*
X4770000Y4590458D01*
X4896555Y4610502D01*
X5010723Y4668674D01*
X5101326Y4759277D01*
X5159498Y4873445D01*
X5179542Y5000000D01*
X5590458Y5000000D01*
X5610502Y4873445D01*
X5610502Y4873444D01*
X5649111Y4797671D01*
X5668674Y4759277D01*
X5759277Y4668674D01*
X5873445Y4610502D01*
X6000000Y4590458D01*
X6126555Y4610502D01*
X6240723Y4668674D01*
X6331326Y4759277D01*
X6389498Y4873445D01*
X6409542Y5000000D01*
X6389498Y5126555D01*
X6331326Y5240723D01*
X6240723Y5331326D01*
X6126555Y5389498D01*
X6000000Y5409542D01*
X5873444Y5389498D01*
X5873443Y5389498D01*
X5759276Y5331326D01*
X5668674Y5240724D01*
X5610502Y5126557D01*
X5610502Y5126556D01*
X5590458Y5000000D01*
X5179542Y5000000D01*
X5159498Y5126555D01*
X5101326Y5240723D01*
X5010723Y5331326D01*
X4896555Y5389498D01*
X4770000Y5409542D01*
X4643444Y5389498D01*
X4643443Y5389498D01*
X4529276Y5331326D01*
X4438674Y5240724D01*
X4380502Y5126557D01*
X4380502Y5126556D01*
X4360458Y5000000D01*
X3909542Y5000000D01*
X3889498Y5126555D01*
X3831326Y5240723D01*
X3740723Y5331326D01*
X3626555Y5389498D01*
X3500000Y5409542D01*
X3373444Y5389498D01*
X3373443Y5389498D01*
X3259276Y5331326D01*
X3168674Y5240724D01*
X3110502Y5126557D01*
X3110502Y5126556D01*
X3090458Y5000000D01*
X2409542Y5000000D01*
X2389498Y5126555D01*
X2331326Y5240723D01*
X2240723Y5331326D01*
X2126555Y5389498D01*
X2000000Y5409542D01*
X1873444Y5389498D01*
X1873443Y5389498D01*
X1759276Y5331326D01*
X1668674Y5240724D01*
X1610502Y5126557D01*
X1610502Y5126556D01*
X1590458Y5000000D01*
X-656296Y5000000D01*
X-640458Y5100000D01*
X-660502Y5226555D01*
X-718674Y5340723D01*
X-809277Y5431326D01*
X-923445Y5489498D01*
X-1050000Y5509542D01*
X-1050001Y5509542D01*
X-1089203Y5503334D01*
X-1146147Y5494315D01*
X-1192660Y5505482D01*
X-1200117Y5511851D01*
X-1284194Y5595928D01*
X-1302500Y5640122D01*
X-1302500Y5673429D01*
X-580432Y5673429D01*
X-580432Y5577131D01*
X-564942Y5499252D01*
X-564941Y5499250D01*
X-505929Y5410933D01*
X-417612Y5351921D01*
X-417610Y5351920D01*
X-339731Y5336430D01*
X-339730Y5336429D01*
X-273432Y5336429D01*
X-273432Y5673429D01*
X-73432Y5673429D01*
X-73432Y5336429D01*
X-7134Y5336429D01*
X-7134Y5336430D01*
X70745Y5351920D01*
X70747Y5351921D01*
X159064Y5410933D01*
X218076Y5499250D01*
X218077Y5499252D01*
X233557Y5577081D01*
X379068Y5577081D01*
X394587Y5499058D01*
X394588Y5499056D01*
X453711Y5410572D01*
X542195Y5351449D01*
X620220Y5335929D01*
X952916Y5335929D01*
X1030941Y5351449D01*
X1119425Y5410572D01*
X1178548Y5499056D01*
X1194068Y5577081D01*
X1194068Y5969777D01*
X1178548Y6047802D01*
X1119425Y6136286D01*
X1048070Y6183964D01*
X1030942Y6195409D01*
X1025255Y6197764D01*
X1026310Y6200312D01*
X995018Y6221239D01*
X984500Y6255940D01*
X984500Y6290921D01*
X1002806Y6335115D01*
X1025929Y6347470D01*
X1025256Y6349096D01*
X1030935Y6351449D01*
X1030941Y6351450D01*
X1119425Y6410573D01*
X1133777Y6432052D01*
X1144248Y6447723D01*
X1184022Y6474299D01*
X1196215Y6475500D01*
X2260000Y6475500D01*
X2304194Y6457194D01*
X2322500Y6413000D01*
X2322500Y5817443D01*
X2329898Y5780252D01*
X2329898Y5780251D01*
X2358077Y5738078D01*
X2386257Y5719250D01*
X2400252Y5709898D01*
X2437442Y5702500D01*
X2437443Y5702500D01*
X4262557Y5702500D01*
X4262558Y5702500D01*
X4299748Y5709898D01*
X4341922Y5738078D01*
X4370102Y5780252D01*
X4377500Y5817442D01*
X4377500Y6730000D01*
X5117528Y6730000D01*
X5137366Y6528579D01*
X5137367Y6528574D01*
X5196051Y6335115D01*
X5196120Y6334890D01*
X5219622Y6290921D01*
X5291527Y6156395D01*
X5291531Y6156389D01*
X5419932Y5999932D01*
X5576389Y5871531D01*
X5576391Y5871530D01*
X5576394Y5871528D01*
X5616276Y5850211D01*
X5754890Y5776120D01*
X5948575Y5717367D01*
X6150000Y5697528D01*
X6351425Y5717367D01*
X6545110Y5776120D01*
X6723611Y5871531D01*
X6758299Y5899999D01*
X7417948Y5899999D01*
X7436075Y5762302D01*
X7436076Y5762299D01*
X7436077Y5762295D01*
X7489229Y5633974D01*
X7573782Y5523782D01*
X7683974Y5439229D01*
X7812295Y5386077D01*
X7812299Y5386077D01*
X7812301Y5386076D01*
X7949998Y5367948D01*
X7950000Y5367948D01*
X7950002Y5367948D01*
X8087698Y5386076D01*
X8087698Y5386077D01*
X8087705Y5386077D01*
X8216026Y5439229D01*
X8326218Y5523782D01*
X8402512Y5623212D01*
X8439903Y5646463D01*
X8509300Y5660266D01*
X8572233Y5702316D01*
X8572233Y5702318D01*
X8576635Y5705258D01*
X8576646Y5705266D01*
X8583881Y5710101D01*
X8593483Y5716516D01*
X8604261Y5732648D01*
X8612028Y5742113D01*
X10407883Y7537969D01*
X10417349Y7545737D01*
X10433484Y7556517D01*
X10460270Y7596605D01*
X10500040Y7623181D01*
X10524373Y7628020D01*
X10612857Y7687143D01*
X10671980Y7775627D01*
X10671980Y7775631D01*
X10672343Y7776505D01*
X10673018Y7777181D01*
X10675400Y7780745D01*
X10676108Y7780272D01*
X10706164Y7810333D01*
X10754000Y7810338D01*
X10779672Y7790641D01*
X10791193Y7775627D01*
X10800282Y7763782D01*
X10910474Y7679229D01*
X11038795Y7626077D01*
X11038799Y7626077D01*
X11038801Y7626076D01*
X11176498Y7607948D01*
X11176500Y7607948D01*
X11176502Y7607948D01*
X11314198Y7626076D01*
X11314198Y7626077D01*
X11314205Y7626077D01*
X11442526Y7679229D01*
X11552718Y7763782D01*
X11637271Y7873974D01*
X11690423Y8002295D01*
X11690424Y8002302D01*
X11708552Y8139999D01*
X11708552Y8140002D01*
X11690424Y8277699D01*
X11690423Y8277702D01*
X11690423Y8277705D01*
X11637271Y8406026D01*
X11552718Y8516218D01*
X11442526Y8600771D01*
X11314205Y8653923D01*
X11314202Y8653924D01*
X11314201Y8653924D01*
X11314198Y8653925D01*
X11176502Y8672052D01*
X11176498Y8672052D01*
X11038801Y8653925D01*
X11038798Y8653924D01*
X11038795Y8653924D01*
X11038795Y8653923D01*
X10910474Y8600771D01*
X10800282Y8516218D01*
X10725646Y8418952D01*
X10684221Y8395035D01*
X10676063Y8394500D01*
X10569493Y8394500D01*
X10534770Y8405033D01*
X10524373Y8411980D01*
X10524371Y8411981D01*
X10446348Y8427500D01*
X10228306Y8427500D01*
X10184112Y8445806D01*
X10147653Y8482265D01*
X10129347Y8526459D01*
X10147653Y8570653D01*
X10150000Y8573000D01*
X10150000Y8880000D01*
X10350000Y8880000D01*
X10350000Y8573000D01*
X10446298Y8573000D01*
X10446298Y8573001D01*
X10524177Y8588491D01*
X10524179Y8588492D01*
X10612496Y8647504D01*
X10671508Y8735821D01*
X10671509Y8735823D01*
X10686999Y8813702D01*
X10687000Y8813702D01*
X10687000Y8880000D01*
X10350000Y8880000D01*
X10150000Y8880000D01*
X9813000Y8880000D01*
X9813000Y8813704D01*
X9813897Y8809195D01*
X9804566Y8762278D01*
X9764793Y8735701D01*
X9752598Y8734500D01*
X9338620Y8734500D01*
X9294426Y8752806D01*
X9286653Y8762277D01*
X9252857Y8812857D01*
X9194001Y8852183D01*
X9164375Y8871979D01*
X9164371Y8871981D01*
X9086348Y8887500D01*
X8693652Y8887500D01*
X8615628Y8871981D01*
X8615624Y8871979D01*
X8528411Y8813704D01*
X8527143Y8812857D01*
X8493348Y8762278D01*
X8493347Y8762277D01*
X8453573Y8735701D01*
X8441380Y8734500D01*
X8364312Y8734500D01*
X8320118Y8752806D01*
X8312345Y8762277D01*
X8264252Y8834253D01*
X8177424Y8892270D01*
X8177422Y8892271D01*
X8100856Y8907500D01*
X7679144Y8907500D01*
X7602577Y8892271D01*
X7602575Y8892270D01*
X7515747Y8834253D01*
X7457730Y8747425D01*
X7457729Y8747423D01*
X7442500Y8670857D01*
X7442500Y8349144D01*
X7457729Y8272578D01*
X7457730Y8272576D01*
X7515747Y8185748D01*
X7602575Y8127731D01*
X7602577Y8127730D01*
X7679144Y8112500D01*
X8100856Y8112500D01*
X8177423Y8127730D01*
X8264252Y8185748D01*
X8272254Y8197723D01*
X8312028Y8224299D01*
X8324221Y8225500D01*
X8441380Y8225500D01*
X8485574Y8207194D01*
X8493346Y8197725D01*
X8527143Y8147143D01*
X8615627Y8088020D01*
X8693652Y8072500D01*
X9086348Y8072500D01*
X9164373Y8088020D01*
X9252857Y8147143D01*
X9286653Y8197724D01*
X9326427Y8224299D01*
X9338620Y8225500D01*
X9658694Y8225500D01*
X9702888Y8207194D01*
X9794194Y8115888D01*
X9812500Y8071694D01*
X9812500Y7853652D01*
X9828019Y7775629D01*
X9828021Y7775625D01*
X9838652Y7759714D01*
X9847983Y7712797D01*
X9830878Y7680798D01*
X9428792Y7278713D01*
X9384598Y7260407D01*
X9340404Y7278713D01*
X9322098Y7322907D01*
X9323299Y7335103D01*
X9327000Y7353706D01*
X9327000Y7420000D01*
X8990000Y7420000D01*
X8990000Y7113000D01*
X9086295Y7113000D01*
X9104897Y7116701D01*
X9151814Y7107370D01*
X9178392Y7067598D01*
X9169061Y7020681D01*
X9161287Y7011208D01*
X8420063Y6269984D01*
X8375869Y6251678D01*
X8331675Y6269984D01*
X8326287Y6276128D01*
X8326218Y6276218D01*
X8326215Y6276220D01*
X8326214Y6276222D01*
X8228171Y6351452D01*
X8216026Y6360771D01*
X8087705Y6413923D01*
X8087702Y6413924D01*
X8087701Y6413924D01*
X8087698Y6413925D01*
X7950002Y6432052D01*
X7949998Y6432052D01*
X7812301Y6413925D01*
X7812298Y6413924D01*
X7812295Y6413924D01*
X7812295Y6413923D01*
X7683974Y6360771D01*
X7573782Y6276218D01*
X7489229Y6166026D01*
X7440180Y6047609D01*
X7436076Y6037702D01*
X7436075Y6037699D01*
X7417948Y5900002D01*
X7417948Y5899999D01*
X6758299Y5899999D01*
X6880068Y5999932D01*
X7008469Y6156389D01*
X7103880Y6334890D01*
X7162633Y6528575D01*
X7182472Y6730000D01*
X7162633Y6931425D01*
X7131273Y7034807D01*
X7103882Y7125105D01*
X7103880Y7125108D01*
X7103880Y7125110D01*
X7094028Y7143541D01*
X7089342Y7191144D01*
X7119689Y7228121D01*
X7149150Y7235500D01*
X7435734Y7235500D01*
X7479928Y7217194D01*
X7487701Y7207723D01*
X7515747Y7165749D01*
X7515750Y7165746D01*
X7602575Y7107731D01*
X7602577Y7107730D01*
X7679144Y7092500D01*
X8100856Y7092500D01*
X8177423Y7107730D01*
X8264252Y7165748D01*
X8322270Y7252577D01*
X8336393Y7323582D01*
X8362968Y7363355D01*
X8409885Y7372687D01*
X8449659Y7346112D01*
X8458991Y7323581D01*
X8468490Y7275823D01*
X8468491Y7275821D01*
X8527503Y7187504D01*
X8615820Y7128492D01*
X8615822Y7128491D01*
X8693701Y7113001D01*
X8693702Y7113000D01*
X8790000Y7113000D01*
X8790000Y7927000D01*
X8990000Y7927000D01*
X8990000Y7620000D01*
X9327000Y7620000D01*
X9327000Y7686298D01*
X9326999Y7686299D01*
X9311509Y7764178D01*
X9311508Y7764180D01*
X9252496Y7852497D01*
X9164179Y7911509D01*
X9164177Y7911510D01*
X9086298Y7927000D01*
X8990000Y7927000D01*
X8790000Y7927000D01*
X8693702Y7927000D01*
X8615822Y7911510D01*
X8615820Y7911509D01*
X8527503Y7852497D01*
X8468491Y7764180D01*
X8468490Y7764178D01*
X8453024Y7686420D01*
X8426448Y7646646D01*
X8379532Y7637314D01*
X8339758Y7663890D01*
X8330426Y7686420D01*
X8322270Y7727423D01*
X8322269Y7727425D01*
X8264252Y7814253D01*
X8177424Y7872270D01*
X8177422Y7872271D01*
X8100856Y7887500D01*
X7679144Y7887500D01*
X7602577Y7872271D01*
X7602575Y7872270D01*
X7515750Y7814255D01*
X7515747Y7814252D01*
X7487701Y7772277D01*
X7447927Y7745701D01*
X7435734Y7744500D01*
X6941217Y7744500D01*
X6929025Y7745701D01*
X6910000Y7749485D01*
X6887952Y7745100D01*
X6887951Y7745101D01*
X6887944Y7745099D01*
X6810700Y7729735D01*
X6810696Y7729733D01*
X6747762Y7687683D01*
X6747763Y7687682D01*
X6726515Y7673484D01*
X6715735Y7657352D01*
X6707965Y7647885D01*
X6707472Y7647392D01*
X6663278Y7629086D01*
X6633816Y7636466D01*
X6545111Y7683880D01*
X6545108Y7683881D01*
X6351426Y7742633D01*
X6351421Y7742634D01*
X6150000Y7762472D01*
X5948578Y7742634D01*
X5948573Y7742633D01*
X5754894Y7683882D01*
X5754890Y7683881D01*
X5754890Y7683880D01*
X5746189Y7679229D01*
X5576394Y7588473D01*
X5576388Y7588469D01*
X5419932Y7460068D01*
X5291531Y7303612D01*
X5291527Y7303606D01*
X5196118Y7125106D01*
X5137367Y6931427D01*
X5137366Y6931422D01*
X5117528Y6730001D01*
X5117528Y6730000D01*
X4377500Y6730000D01*
X4377500Y7642558D01*
X4370102Y7679748D01*
X4370101Y7679750D01*
X4341922Y7721923D01*
X4299748Y7750102D01*
X4262558Y7757500D01*
X2437442Y7757500D01*
X2418847Y7753801D01*
X2400251Y7750102D01*
X2400250Y7750102D01*
X2358077Y7721923D01*
X2329898Y7679750D01*
X2329898Y7679749D01*
X2322500Y7642558D01*
X2322500Y7047000D01*
X2304194Y7002806D01*
X2260000Y6984500D01*
X1242432Y6984500D01*
X1198238Y7002806D01*
X1181133Y7034807D01*
X1178548Y7047803D01*
X1178547Y7047805D01*
X1155077Y7082930D01*
X1119425Y7136287D01*
X1037326Y7191144D01*
X1030943Y7195409D01*
X1030939Y7195411D01*
X952916Y7210930D01*
X620220Y7210930D01*
X542196Y7195411D01*
X542192Y7195409D01*
X453711Y7136287D01*
X394589Y7047806D01*
X394587Y7047802D01*
X379068Y6969779D01*
X379068Y6577082D01*
X394587Y6499059D01*
X394589Y6499055D01*
X453710Y6410573D01*
X457191Y6407093D01*
X475500Y6362900D01*
X475500Y6183964D01*
X457197Y6139773D01*
X453712Y6136289D01*
X394589Y6047805D01*
X394587Y6047801D01*
X379068Y5969778D01*
X379068Y5577081D01*
X233557Y5577081D01*
X233567Y5577131D01*
X233568Y5577131D01*
X233568Y5673429D01*
X-73432Y5673429D01*
X-273432Y5673429D01*
X-580432Y5673429D01*
X-1302500Y5673429D01*
X-1302500Y5873429D01*
X-580432Y5873429D01*
X-273432Y5873429D01*
X-273432Y6210429D01*
X-73432Y6210429D01*
X-73432Y5873429D01*
X233568Y5873429D01*
X233568Y5969727D01*
X233567Y5969728D01*
X218077Y6047607D01*
X218076Y6047609D01*
X159064Y6135926D01*
X70747Y6194938D01*
X70745Y6194939D01*
X-7134Y6210429D01*
X-73432Y6210429D01*
X-273432Y6210429D01*
X-339730Y6210429D01*
X-417610Y6194939D01*
X-417612Y6194938D01*
X-505929Y6135926D01*
X-564941Y6047609D01*
X-564942Y6047607D01*
X-580432Y5969728D01*
X-580432Y5873429D01*
X-1302500Y5873429D01*
X-1302500Y5900856D01*
X-1317730Y5977423D01*
X-1332770Y5999932D01*
X-1375748Y6064253D01*
X-1462576Y6122270D01*
X-1462578Y6122271D01*
X-1539144Y6137500D01*
X-1960856Y6137500D01*
X-2037423Y6122271D01*
X-2037425Y6122270D01*
X-2124253Y6064253D01*
X-2182270Y5977425D01*
X-2182271Y5977423D01*
X-2197500Y5900857D01*
X-2197500Y5579144D01*
X-2182271Y5502578D01*
X-2182270Y5502576D01*
X-2124253Y5415748D01*
X-2037425Y5357731D01*
X-2037423Y5357730D01*
X-1960856Y5342500D01*
X-1700121Y5342500D01*
X-1655927Y5324194D01*
X-1477848Y5146115D01*
X-1460732Y5104792D01*
X-1460311Y5104858D01*
X-1460034Y5103109D01*
X-1459542Y5101921D01*
X-1459542Y5100003D01*
X-1459542Y5100000D01*
X-1443704Y5000000D01*
X-1439498Y4973445D01*
X-1439497Y4973441D01*
X-1397681Y4891374D01*
X-1393928Y4843686D01*
X-1424995Y4807312D01*
X-1453369Y4800500D01*
X-1746930Y4800500D01*
X-1753056Y4800801D01*
X-1880339Y4813338D01*
X-1892355Y4815728D01*
X-2011798Y4851960D01*
X-2023115Y4856648D01*
X-2133193Y4915486D01*
X-2143379Y4922292D01*
X-2239863Y5001475D01*
X-2248526Y5010138D01*
X-2327709Y5106622D01*
X-2334514Y5116805D01*
X-2393356Y5226890D01*
X-2398041Y5238203D01*
X-2398806Y5240724D01*
X-2434274Y5357647D01*
X-2436663Y5369662D01*
X-2438280Y5386076D01*
X-2449199Y5496944D01*
X-2449500Y5503070D01*
X-2449500Y6599144D01*
X-2197500Y6599144D01*
X-2182271Y6522578D01*
X-2182270Y6522576D01*
X-2124253Y6435748D01*
X-2037425Y6377731D01*
X-2037423Y6377730D01*
X-1960856Y6362500D01*
X-1539144Y6362500D01*
X-1462577Y6377730D01*
X-1375748Y6435748D01*
X-1329660Y6504724D01*
X-1289886Y6531299D01*
X-1277693Y6532500D01*
X-1257573Y6532500D01*
X-1254302Y6532414D01*
X-1213618Y6530282D01*
X-1213618Y6530283D01*
X-1213616Y6530282D01*
X-1189776Y6539434D01*
X-1180381Y6542217D01*
X-1155400Y6547526D01*
X-1147163Y6553511D01*
X-1132828Y6561294D01*
X-1123327Y6564940D01*
X-1105268Y6583001D01*
X-1097824Y6589359D01*
X-1077158Y6604372D01*
X-1072068Y6613190D01*
X-1062140Y6626129D01*
X-1014839Y6673430D01*
X-580432Y6673430D01*
X-580432Y6577132D01*
X-564942Y6499253D01*
X-564941Y6499251D01*
X-505929Y6410934D01*
X-417612Y6351922D01*
X-417610Y6351921D01*
X-339731Y6336431D01*
X-339730Y6336430D01*
X-273432Y6336430D01*
X-273432Y6673430D01*
X-73432Y6673430D01*
X-73432Y6336430D01*
X-7134Y6336430D01*
X-7134Y6336431D01*
X70745Y6351921D01*
X70747Y6351922D01*
X159064Y6410934D01*
X218076Y6499251D01*
X218077Y6499253D01*
X233567Y6577132D01*
X233568Y6577132D01*
X233568Y6673430D01*
X-73432Y6673430D01*
X-273432Y6673430D01*
X-580432Y6673430D01*
X-1014839Y6673430D01*
X-687125Y7001143D01*
X-642932Y7019448D01*
X-598738Y7001142D01*
X-580432Y6956948D01*
X-580432Y6873430D01*
X233568Y6873430D01*
X233568Y6969728D01*
X233567Y6969729D01*
X218077Y7047608D01*
X218076Y7047610D01*
X159064Y7135926D01*
X155600Y7138241D01*
X129026Y7178016D01*
X138359Y7224932D01*
X146115Y7234384D01*
X290928Y7379196D01*
X335121Y7397500D01*
X631439Y7397500D01*
X631441Y7397501D01*
X654629Y7400191D01*
X654630Y7400192D01*
X654634Y7400192D01*
X721526Y7429728D01*
X749538Y7442095D01*
X749538Y7442096D01*
X749542Y7442097D01*
X822903Y7515458D01*
X864808Y7610366D01*
X864822Y7610479D01*
X867499Y7633559D01*
X867500Y7633561D01*
X867500Y8891440D01*
X867499Y8891442D01*
X864809Y8914630D01*
X864807Y8914636D01*
X822905Y9009539D01*
X822902Y9009543D01*
X749542Y9082903D01*
X749538Y9082906D01*
X654635Y9124808D01*
X654629Y9124810D01*
X631440Y9127500D01*
X631432Y9127500D01*
X248568Y9127500D01*
X248560Y9127500D01*
X225370Y9124810D01*
X225364Y9124808D01*
X130461Y9082906D01*
X130457Y9082903D01*
X57097Y9009543D01*
X57094Y9009539D01*
X15192Y8914636D01*
X15190Y8914630D01*
X12500Y8891442D01*
X12500Y7770122D01*
X-5806Y7725928D01*
X-175498Y7556236D01*
X-219692Y7537930D01*
X-691986Y7537930D01*
X-695256Y7538016D01*
X-706465Y7538604D01*
X-735951Y7540149D01*
X-735956Y7540149D01*
X-759804Y7530996D01*
X-769199Y7528214D01*
X-794168Y7522906D01*
X-794174Y7522903D01*
X-802408Y7516921D01*
X-816737Y7509141D01*
X-826243Y7505492D01*
X-826245Y7505491D01*
X-844302Y7487434D01*
X-851754Y7481069D01*
X-872412Y7466059D01*
X-872414Y7466057D01*
X-877502Y7457244D01*
X-887432Y7444304D01*
X-1270522Y7061214D01*
X-1314716Y7042908D01*
X-1358910Y7061214D01*
X-1366683Y7070685D01*
X-1375748Y7084252D01*
X-1375751Y7084255D01*
X-1462576Y7142270D01*
X-1462578Y7142271D01*
X-1539144Y7157500D01*
X-1960856Y7157500D01*
X-2037423Y7142271D01*
X-2037425Y7142270D01*
X-2124253Y7084253D01*
X-2182270Y6997425D01*
X-2182271Y6997423D01*
X-2197500Y6920857D01*
X-2197500Y6599144D01*
X-2449500Y6599144D01*
X-2449500Y8162500D01*
X-1886999Y8162500D01*
X-1886999Y7633645D01*
X-1884313Y7610479D01*
X-1884312Y7610478D01*
X-1842484Y7515748D01*
X-1842483Y7515746D01*
X-1769256Y7442519D01*
X-1674517Y7400688D01*
X-1651356Y7398001D01*
X-1560001Y7398001D01*
X-1560000Y7398002D01*
X-1560000Y8162500D01*
X-1360000Y8162500D01*
X-1360000Y7398001D01*
X-1268645Y7398001D01*
X-1245479Y7400688D01*
X-1245478Y7400689D01*
X-1150748Y7442517D01*
X-1150746Y7442517D01*
X-1077519Y7515745D01*
X-1035688Y7610484D01*
X-1033000Y7633645D01*
X-1033000Y8162500D01*
X-1360000Y8162500D01*
X-1560000Y8162500D01*
X-1886999Y8162500D01*
X-2449500Y8162500D01*
X-2449500Y8362500D01*
X-1887000Y8362500D01*
X-1560000Y8362500D01*
X-1560000Y9127000D01*
X-1360000Y9127000D01*
X-1360000Y8362500D01*
X-1033001Y8362500D01*
X-1033001Y8891356D01*
X-1035688Y8914522D01*
X-1035689Y8914523D01*
X-1077517Y9009253D01*
X-1077517Y9009254D01*
X-1150745Y9082482D01*
X-1245484Y9124313D01*
X-1268644Y9127000D01*
X-1360000Y9127000D01*
X-1560000Y9127000D01*
X-1651356Y9127000D01*
X-1674522Y9124313D01*
X-1674523Y9124312D01*
X-1769253Y9082484D01*
X-1769254Y9082483D01*
X-1842482Y9009256D01*
X-1884313Y8914517D01*
X-1887000Y8891356D01*
X-1887000Y8362500D01*
X-2449500Y8362500D01*
X-2449500Y13582424D01*
X-2449418Y13585627D01*
X-2447049Y13631786D01*
X-2440736Y13754786D01*
X-2440083Y13761125D01*
X-2414378Y13926926D01*
X-2413076Y13933188D01*
X-2406501Y13958271D01*
X-2370538Y14095482D01*
X-2368608Y14101559D01*
X-2344994Y14164510D01*
X-2312336Y14199455D01*
X-2264527Y14201074D01*
X-2261575Y14199879D01*
X-1388292Y13820164D01*
X-1388294Y13820164D01*
X-1377075Y13817729D01*
X-1351236Y13812119D01*
X-1301323Y13821145D01*
X-1258664Y13848584D01*
X-1237050Y13879739D01*
X-1118071Y14153374D01*
X-1083663Y14186602D01*
X-1035835Y14185767D01*
X-1016562Y14172645D01*
X312303Y12843780D01*
X330609Y12799586D01*
X312303Y12755392D01*
X268109Y12737086D01*
X230062Y12750001D01*
X223036Y12755392D01*
X216026Y12760771D01*
X87705Y12813923D01*
X87702Y12813924D01*
X87701Y12813924D01*
X87698Y12813925D01*
X-49998Y12832052D01*
X-50002Y12832052D01*
X-187699Y12813925D01*
X-187702Y12813924D01*
X-187705Y12813924D01*
X-187705Y12813923D01*
X-316026Y12760771D01*
X-426218Y12676218D01*
X-510771Y12566026D01*
X-561488Y12443582D01*
X-563924Y12437702D01*
X-563925Y12437699D01*
X-582052Y12300003D01*
X-582052Y12300000D01*
X-579910Y12283725D01*
X-577860Y12268158D01*
X-590240Y12221953D01*
X-631667Y12198035D01*
X-639825Y12197500D01*
X-900856Y12197500D01*
X-977423Y12182271D01*
X-977425Y12182270D01*
X-1064253Y12124253D01*
X-1122270Y12037425D01*
X-1122271Y12037423D01*
X-1137500Y11960857D01*
X-1137500Y11638306D01*
X-1155806Y11594112D01*
X-1200000Y11575806D01*
X-1244194Y11594112D01*
X-1344194Y11694112D01*
X-1362500Y11738306D01*
X-1362500Y11960856D01*
X-1377730Y12037423D01*
X-1377731Y12037425D01*
X-1435748Y12124253D01*
X-1522576Y12182270D01*
X-1522578Y12182271D01*
X-1599144Y12197500D01*
X-1920856Y12197500D01*
X-1997423Y12182271D01*
X-1997425Y12182270D01*
X-2084253Y12124253D01*
X-2142270Y12037425D01*
X-2142271Y12037423D01*
X-2157500Y11960857D01*
X-2157500Y11539144D01*
X-2142271Y11462578D01*
X-2142270Y11462576D01*
X-2084253Y11375748D01*
X-1997425Y11317731D01*
X-1997423Y11317730D01*
X-1920856Y11302500D01*
X-1698306Y11302500D01*
X-1654112Y11284194D01*
X-955806Y10585888D01*
X-937500Y10541694D01*
X-937500Y9508559D01*
X-934810Y9485371D01*
X-934808Y9485365D01*
X-892906Y9390462D01*
X-892903Y9390458D01*
X-819543Y9317098D01*
X-819539Y9317095D01*
X-738642Y9281377D01*
X-724634Y9275192D01*
X-724633Y9275192D01*
X-724630Y9275191D01*
X-701442Y9272501D01*
X-701439Y9272500D01*
X-701432Y9272500D01*
X-318561Y9272500D01*
X-318559Y9272501D01*
X-295371Y9275191D01*
X-295370Y9275192D01*
X-295366Y9275192D01*
X-210876Y9312497D01*
X-200462Y9317095D01*
X-200462Y9317096D01*
X-200458Y9317097D01*
X-127097Y9390458D01*
X-85192Y9485366D01*
X-82501Y9508559D01*
X-82500Y9508561D01*
X-82500Y10581694D01*
X-64194Y10625888D01*
X-20000Y10644194D01*
X24194Y10625888D01*
X1557965Y9092117D01*
X1565738Y9082646D01*
X1576513Y9066519D01*
X1576516Y9066516D01*
X1595210Y9054025D01*
X1595221Y9054017D01*
X1597764Y9052318D01*
X1597766Y9052316D01*
X1660699Y9010266D01*
X1710349Y9000390D01*
X1759999Y8990514D01*
X1760000Y8990514D01*
X1779029Y8994300D01*
X1791222Y8995500D01*
X2313180Y8995500D01*
X2357374Y8977194D01*
X2372989Y8951143D01*
X2396118Y8874893D01*
X2491527Y8696395D01*
X2491531Y8696389D01*
X2619932Y8539932D01*
X2776389Y8411531D01*
X2776391Y8411530D01*
X2776394Y8411528D01*
X2807251Y8395035D01*
X2954890Y8316120D01*
X3148575Y8257367D01*
X3350000Y8237528D01*
X3551425Y8257367D01*
X3745110Y8316120D01*
X3923611Y8411531D01*
X4080068Y8539932D01*
X4208469Y8696389D01*
X4303880Y8874890D01*
X4362633Y9068575D01*
X4382472Y9270000D01*
X4362633Y9471425D01*
X4303880Y9665110D01*
X4208469Y9843611D01*
X4080068Y10000068D01*
X3923611Y10128469D01*
X3923605Y10128473D01*
X3784933Y10202594D01*
X3745110Y10223880D01*
X3745107Y10223881D01*
X3745105Y10223882D01*
X3551426Y10282633D01*
X3551421Y10282634D01*
X3350000Y10302472D01*
X3148578Y10282634D01*
X3148573Y10282633D01*
X2954894Y10223882D01*
X2954890Y10223881D01*
X2954890Y10223880D01*
X2940196Y10216026D01*
X2776394Y10128473D01*
X2776388Y10128469D01*
X2619932Y10000068D01*
X2491531Y9843612D01*
X2491527Y9843606D01*
X2396118Y9665108D01*
X2360855Y9548857D01*
X2330508Y9511880D01*
X2301046Y9504500D01*
X1891306Y9504500D01*
X1847112Y9522806D01*
X-324194Y11694112D01*
X-342500Y11738306D01*
X-342500Y11756658D01*
X-324194Y11800852D01*
X-280000Y11819158D01*
X-256085Y11814401D01*
X-187705Y11786077D01*
X-187701Y11786077D01*
X-187699Y11786076D01*
X-50002Y11767948D01*
X-50000Y11767948D01*
X-49998Y11767948D01*
X71552Y11783950D01*
X117758Y11771569D01*
X123904Y11766179D01*
X441962Y11448121D01*
X449735Y11438650D01*
X460512Y11422520D01*
X460513Y11422519D01*
X460514Y11422519D01*
X460515Y11422517D01*
X479222Y11410018D01*
X479251Y11409997D01*
X503214Y11393986D01*
X526234Y11365937D01*
X528018Y11361629D01*
X557350Y11317731D01*
X587143Y11273143D01*
X675627Y11214020D01*
X753652Y11198500D01*
X1146348Y11198500D01*
X1224373Y11214020D01*
X1312857Y11273143D01*
X1371980Y11361627D01*
X1381924Y11411625D01*
X1391253Y11434148D01*
X1402096Y11450375D01*
X1441869Y11476948D01*
X1488785Y11467614D01*
X1515359Y11427841D01*
X1528490Y11361823D01*
X1528491Y11361821D01*
X1587503Y11273504D01*
X1675820Y11214492D01*
X1675822Y11214491D01*
X1753701Y11199001D01*
X1753702Y11199000D01*
X1850000Y11199000D01*
X1850000Y11506000D01*
X2050000Y11506000D01*
X2050000Y11199000D01*
X2146298Y11199000D01*
X2146298Y11199001D01*
X2224177Y11214491D01*
X2224179Y11214492D01*
X2312496Y11273504D01*
X2371508Y11361821D01*
X2371509Y11361823D01*
X2386999Y11439702D01*
X2387000Y11439702D01*
X2387000Y11506000D01*
X2050000Y11506000D01*
X1850000Y11506000D01*
X1850000Y12013000D01*
X2050000Y12013000D01*
X2050000Y11706000D01*
X2387000Y11706000D01*
X2387000Y11772298D01*
X2386999Y11772299D01*
X2371509Y11850178D01*
X2371508Y11850180D01*
X2312496Y11938497D01*
X2224179Y11997509D01*
X2224177Y11997510D01*
X2146298Y12013000D01*
X2050000Y12013000D01*
X1850000Y12013000D01*
X1753702Y12013000D01*
X1675822Y11997510D01*
X1675820Y11997509D01*
X1587503Y11938497D01*
X1528491Y11850180D01*
X1528491Y11850179D01*
X1515359Y11784162D01*
X1488783Y11744389D01*
X1441866Y11735057D01*
X1402093Y11761633D01*
X1399344Y11765747D01*
X1391254Y11777855D01*
X1381923Y11800383D01*
X1380389Y11808095D01*
X1371980Y11850373D01*
X1312857Y11938857D01*
X1254001Y11978183D01*
X1224375Y11997979D01*
X1224371Y11997981D01*
X1146348Y12013500D01*
X753652Y12013500D01*
X675628Y11997981D01*
X669940Y11995624D01*
X668673Y11998682D01*
X633115Y11991647D01*
X601178Y12008739D01*
X483821Y12126096D01*
X465515Y12170290D01*
X466050Y12178447D01*
X470322Y12210901D01*
X494238Y12252328D01*
X540444Y12264709D01*
X581871Y12240793D01*
X584251Y12237472D01*
X587143Y12233143D01*
X675627Y12174020D01*
X753652Y12158500D01*
X1146348Y12158500D01*
X1224373Y12174020D01*
X1312857Y12233143D01*
X1346655Y12283725D01*
X1386429Y12310301D01*
X1398622Y12311502D01*
X1501378Y12311502D01*
X1545572Y12293196D01*
X1553345Y12283725D01*
X1587143Y12233143D01*
X1675627Y12174020D01*
X1753652Y12158500D01*
X2146348Y12158500D01*
X2224373Y12174020D01*
X2312857Y12233143D01*
X2371980Y12321627D01*
X2387500Y12399652D01*
X2387500Y12417694D01*
X2405806Y12461888D01*
X2743112Y12799194D01*
X2787306Y12817500D01*
X3914774Y12817500D01*
X3926967Y12816299D01*
X3945995Y12812514D01*
X3945995Y12812515D01*
X3945996Y12812514D01*
X3971063Y12817500D01*
X3971064Y12817500D01*
X4045298Y12832266D01*
X4106895Y12873424D01*
X4108230Y12874316D01*
X4108230Y12874317D01*
X4114999Y12878839D01*
X4115000Y12878842D01*
X4129481Y12888516D01*
X4140261Y12904651D01*
X4148028Y12914116D01*
X4262543Y13028630D01*
X4283365Y13037255D01*
X4297370Y13063457D01*
X4394110Y13160196D01*
X4438303Y13178500D01*
X4663879Y13178500D01*
X4708073Y13160194D01*
X4728072Y13140195D01*
X4746378Y13096001D01*
X4728072Y13051807D01*
X4683878Y13033501D01*
X4529143Y13033501D01*
X4452576Y13018272D01*
X4452574Y13018271D01*
X4376290Y12967299D01*
X4363249Y12964706D01*
X4358701Y12949711D01*
X4307729Y12873426D01*
X4307728Y12873424D01*
X4292499Y12796858D01*
X4292499Y12375145D01*
X4307728Y12298579D01*
X4307729Y12298577D01*
X4365746Y12211749D01*
X4386271Y12198035D01*
X4434723Y12165660D01*
X4461298Y12125889D01*
X4462499Y12113695D01*
X4462499Y11946123D01*
X4444193Y11901929D01*
X3798319Y11256055D01*
X3754125Y11237749D01*
X3744350Y11238518D01*
X3699999Y11245542D01*
X3573443Y11225498D01*
X3573442Y11225498D01*
X3459275Y11167326D01*
X3368673Y11076724D01*
X3310501Y10962557D01*
X3310501Y10962556D01*
X3290457Y10836000D01*
X3310501Y10709445D01*
X3310501Y10709444D01*
X3347056Y10637702D01*
X3368673Y10595277D01*
X3459276Y10504674D01*
X3573444Y10446502D01*
X3699999Y10426458D01*
X3826554Y10446502D01*
X3940722Y10504674D01*
X4031325Y10595277D01*
X4089497Y10709445D01*
X4109541Y10836000D01*
X4102516Y10880353D01*
X4113683Y10926865D01*
X4120047Y10934316D01*
X4845512Y11659781D01*
X4847827Y11661979D01*
X4878162Y11689291D01*
X4886377Y11707744D01*
X4888548Y11712619D01*
X4893224Y11721234D01*
X4907133Y11742650D01*
X4908724Y11752701D01*
X4913355Y11768337D01*
X4913821Y11769383D01*
X4948517Y11802310D01*
X4996336Y11801059D01*
X5015111Y11788156D01*
X5035992Y11767275D01*
X5042362Y11759817D01*
X5057370Y11739160D01*
X5057369Y11739160D01*
X5066188Y11734068D01*
X5079129Y11724137D01*
X5279194Y11524073D01*
X5297500Y11479879D01*
X5297500Y11158307D01*
X5279194Y11114113D01*
X5092114Y10927034D01*
X5082646Y10919263D01*
X5066515Y10908484D01*
X5052790Y10887947D01*
X5052788Y10887941D01*
X5026520Y10848630D01*
X5011302Y10832799D01*
X5009280Y10831330D01*
X4918674Y10740724D01*
X4860502Y10626557D01*
X4860502Y10626556D01*
X4840458Y10500000D01*
X4860502Y10373445D01*
X4860502Y10373444D01*
X4894512Y10306697D01*
X4918674Y10259277D01*
X5009277Y10168674D01*
X5123445Y10110502D01*
X5250000Y10090458D01*
X5369650Y10109409D01*
X5416162Y10098242D01*
X5441156Y10057455D01*
X5429989Y10010941D01*
X5421940Y10002402D01*
X5422103Y10002239D01*
X5419934Y10000071D01*
X5291531Y9843612D01*
X5291527Y9843606D01*
X5196118Y9665106D01*
X5137367Y9471427D01*
X5137366Y9471422D01*
X5117528Y9270001D01*
X5117528Y9270000D01*
X5137366Y9068579D01*
X5137367Y9068574D01*
X5194569Y8880000D01*
X5196120Y8874890D01*
X5231235Y8809195D01*
X5291527Y8696395D01*
X5291531Y8696389D01*
X5419932Y8539932D01*
X5576389Y8411531D01*
X5576391Y8411530D01*
X5576394Y8411528D01*
X5607251Y8395035D01*
X5754890Y8316120D01*
X5948575Y8257367D01*
X6150000Y8237528D01*
X6351425Y8257367D01*
X6545110Y8316120D01*
X6723611Y8411531D01*
X6880068Y8539932D01*
X7008469Y8696389D01*
X7103880Y8874890D01*
X7162633Y9068575D01*
X7163758Y9080000D01*
X9813000Y9080000D01*
X10150000Y9080000D01*
X10150000Y9387000D01*
X10350000Y9387000D01*
X10350000Y9080000D01*
X10687000Y9080000D01*
X10687000Y9146298D01*
X10686999Y9146299D01*
X10671509Y9224178D01*
X10671508Y9224180D01*
X10612496Y9312497D01*
X10524179Y9371509D01*
X10524177Y9371510D01*
X10446298Y9387000D01*
X10350000Y9387000D01*
X10150000Y9387000D01*
X10053702Y9387000D01*
X9975822Y9371510D01*
X9975820Y9371509D01*
X9887503Y9312497D01*
X9828491Y9224180D01*
X9828490Y9224178D01*
X9813000Y9146299D01*
X9813000Y9080000D01*
X7163758Y9080000D01*
X7182472Y9270000D01*
X7162633Y9471425D01*
X7103880Y9665110D01*
X7043162Y9778703D01*
X7038474Y9826307D01*
X7054087Y9852356D01*
X7121731Y9920000D01*
X8813000Y9920000D01*
X8813000Y9853702D01*
X8828490Y9775823D01*
X8828491Y9775821D01*
X8887503Y9687504D01*
X8975820Y9628492D01*
X8975822Y9628491D01*
X9053701Y9613001D01*
X9053702Y9613000D01*
X9150000Y9613000D01*
X9150000Y9920000D01*
X9350000Y9920000D01*
X9350000Y9613000D01*
X9446298Y9613000D01*
X9446298Y9613001D01*
X9524177Y9628491D01*
X9524179Y9628492D01*
X9612496Y9687504D01*
X9671508Y9775821D01*
X9671509Y9775823D01*
X9686999Y9853702D01*
X9687000Y9853702D01*
X9687000Y9920000D01*
X9350000Y9920000D01*
X9150000Y9920000D01*
X8813000Y9920000D01*
X7121731Y9920000D01*
X7321732Y10120000D01*
X8813000Y10120000D01*
X9150000Y10120000D01*
X9150000Y10427000D01*
X9053702Y10427000D01*
X8975822Y10411510D01*
X8975820Y10411509D01*
X8887503Y10352497D01*
X8828491Y10264180D01*
X8828490Y10264178D01*
X8813000Y10186299D01*
X8813000Y10120000D01*
X7321732Y10120000D01*
X7415523Y10213791D01*
X7417838Y10215989D01*
X7448163Y10243292D01*
X7458548Y10266620D01*
X7463228Y10275237D01*
X7477134Y10296650D01*
X7478725Y10306697D01*
X7483361Y10322349D01*
X7487500Y10331644D01*
X7487500Y10357179D01*
X7488269Y10366955D01*
X7488367Y10367579D01*
X7492263Y10392172D01*
X7489629Y10402000D01*
X7487500Y10418176D01*
X7487500Y10635001D01*
X7505806Y10679195D01*
X7550000Y10697501D01*
X7713366Y10697501D01*
X7713374Y10697501D01*
X7761071Y10703779D01*
X7865744Y10752589D01*
X7926807Y10813652D01*
X8812500Y10813652D01*
X8828019Y10735629D01*
X8828021Y10735625D01*
X8845514Y10709445D01*
X8887143Y10647143D01*
X8975627Y10588020D01*
X9053652Y10572500D01*
X9271694Y10572500D01*
X9315886Y10554196D01*
X9352348Y10517734D01*
X9370653Y10473543D01*
X9352348Y10429349D01*
X9350000Y10427001D01*
X9350000Y10120000D01*
X9687000Y10120000D01*
X9687000Y10180669D01*
X9705306Y10224863D01*
X9737285Y10241964D01*
X9738895Y10242284D01*
X9785812Y10232967D01*
X9800689Y10219039D01*
X9873782Y10123782D01*
X9983974Y10039229D01*
X10112295Y9986077D01*
X10112299Y9986077D01*
X10112301Y9986076D01*
X10249998Y9967948D01*
X10250000Y9967948D01*
X10250002Y9967948D01*
X10387698Y9986076D01*
X10387698Y9986077D01*
X10387705Y9986077D01*
X10516026Y10039229D01*
X10626218Y10123782D01*
X10710771Y10233974D01*
X10763923Y10362295D01*
X10763924Y10362302D01*
X10782052Y10499999D01*
X10782052Y10500002D01*
X10763924Y10637699D01*
X10763923Y10637702D01*
X10763923Y10637705D01*
X10710771Y10766026D01*
X10626218Y10876218D01*
X10516026Y10960771D01*
X10387705Y11013923D01*
X10387702Y11013924D01*
X10387701Y11013924D01*
X10387698Y11013925D01*
X10250002Y11032052D01*
X10249998Y11032052D01*
X10112301Y11013925D01*
X10112298Y11013924D01*
X10112295Y11013924D01*
X10112295Y11013923D01*
X10046377Y10986619D01*
X9983974Y10960771D01*
X9873778Y10876215D01*
X9847662Y10842180D01*
X9806235Y10818263D01*
X9760030Y10830644D01*
X9753884Y10836034D01*
X9705806Y10884112D01*
X9687500Y10928306D01*
X9687500Y11146348D01*
X9671980Y11224373D01*
X9612857Y11312857D01*
X9550465Y11354546D01*
X9524375Y11371979D01*
X9524371Y11371981D01*
X9446348Y11387500D01*
X9053652Y11387500D01*
X8975628Y11371981D01*
X8975624Y11371979D01*
X8887143Y11312857D01*
X8828021Y11224376D01*
X8828019Y11224372D01*
X8812500Y11146349D01*
X8812500Y10813652D01*
X7926807Y10813652D01*
X7947411Y10834256D01*
X7996221Y10938929D01*
X8002500Y10986625D01*
X8002499Y11613374D01*
X7996221Y11661071D01*
X7947411Y11765744D01*
X7947409Y11765746D01*
X7947409Y11765747D01*
X7865746Y11847410D01*
X7859386Y11850376D01*
X7761071Y11896221D01*
X7761069Y11896222D01*
X7761067Y11896222D01*
X7713375Y11902500D01*
X7236634Y11902500D01*
X7236629Y11902500D01*
X7236626Y11902499D01*
X7209550Y11898936D01*
X7163347Y11911318D01*
X7139431Y11952746D01*
X7138897Y11960901D01*
X7138897Y11965563D01*
X7157203Y12009757D01*
X7184871Y12037425D01*
X7242723Y12095277D01*
X7300895Y12209445D01*
X7320939Y12336000D01*
X7300895Y12462555D01*
X7242723Y12576723D01*
X7152120Y12667326D01*
X7037952Y12725498D01*
X6911397Y12745542D01*
X6911395Y12745542D01*
X6868315Y12738720D01*
X6821802Y12749889D01*
X6812095Y12758629D01*
X6798108Y12774162D01*
X6798103Y12774166D01*
X6774778Y12784551D01*
X6766161Y12789230D01*
X6744750Y12803134D01*
X6744744Y12803137D01*
X6734695Y12804728D01*
X6719051Y12809362D01*
X6709755Y12813501D01*
X6684220Y12813501D01*
X6674444Y12814270D01*
X6661633Y12816299D01*
X6649227Y12818264D01*
X6649226Y12818264D01*
X6639396Y12815630D01*
X6623221Y12813501D01*
X6155481Y12813501D01*
X6111287Y12831807D01*
X6094182Y12863806D01*
X6092269Y12873424D01*
X6065076Y12914121D01*
X6034251Y12960254D01*
X5947423Y13018271D01*
X5947421Y13018272D01*
X5870855Y13033501D01*
X5549143Y13033501D01*
X5549139Y13033501D01*
X5498759Y13023480D01*
X5451843Y13032813D01*
X5429280Y13066111D01*
X5428143Y13065604D01*
X5425473Y13071601D01*
X5419494Y13079830D01*
X5411707Y13094172D01*
X5408059Y13103676D01*
X5390003Y13121731D01*
X5383632Y13129191D01*
X5368629Y13149841D01*
X5368629Y13149842D01*
X5367063Y13150746D01*
X5359811Y13154933D01*
X5346871Y13164863D01*
X4915805Y13595929D01*
X4897499Y13640123D01*
X4897499Y13736856D01*
X4882269Y13813423D01*
X4882268Y13813425D01*
X4824251Y13900253D01*
X4737423Y13958270D01*
X4737421Y13958271D01*
X4660855Y13973500D01*
X4239143Y13973500D01*
X4162576Y13958271D01*
X4162574Y13958270D01*
X4075746Y13900253D01*
X4017729Y13813425D01*
X4017728Y13813423D01*
X4009827Y13773701D01*
X3983250Y13733927D01*
X3936334Y13724596D01*
X3896560Y13751173D01*
X3887230Y13773699D01*
X3871979Y13850373D01*
X3812856Y13938857D01*
X3753828Y13978298D01*
X3724374Y13997979D01*
X3724370Y13997981D01*
X3646347Y14013500D01*
X3390120Y14013500D01*
X3345926Y14031806D01*
X3325926Y14051806D01*
X3307620Y14096000D01*
X3325926Y14140194D01*
X3370120Y14158500D01*
X3646347Y14158500D01*
X3724372Y14174020D01*
X3812856Y14233143D01*
X3864694Y14310726D01*
X3904466Y14337300D01*
X3916660Y14338501D01*
X3997736Y14338501D01*
X4041930Y14320195D01*
X4049702Y14310725D01*
X4075743Y14271752D01*
X4075745Y14271750D01*
X4075746Y14271750D01*
X4075747Y14271748D01*
X4162576Y14213730D01*
X4239143Y14198500D01*
X4660855Y14198500D01*
X4737422Y14213730D01*
X4824251Y14271748D01*
X4842178Y14298577D01*
X4854971Y14317723D01*
X4894745Y14344299D01*
X4906938Y14345500D01*
X5046563Y14345500D01*
X5090757Y14327194D01*
X5149277Y14268674D01*
X5263445Y14210502D01*
X5390000Y14190458D01*
X5516555Y14210502D01*
X5630723Y14268674D01*
X5721326Y14359277D01*
X5779498Y14473445D01*
X5799542Y14600000D01*
X5779498Y14726555D01*
X5721326Y14840723D01*
X5630723Y14931326D01*
X5516555Y14989498D01*
X5390000Y15009542D01*
X5263444Y14989498D01*
X5263443Y14989498D01*
X5149276Y14931326D01*
X5090757Y14872806D01*
X5046563Y14854500D01*
X4901593Y14854500D01*
X4857399Y14872806D01*
X4849626Y14882276D01*
X4824250Y14920254D01*
X4737423Y14978270D01*
X4737421Y14978271D01*
X4660855Y14993500D01*
X4239143Y14993500D01*
X4162576Y14978271D01*
X4162574Y14978270D01*
X4075746Y14920253D01*
X4033408Y14856888D01*
X4017729Y14833423D01*
X4017728Y14833421D01*
X4017174Y14832081D01*
X4016146Y14831054D01*
X4014310Y14828305D01*
X4013763Y14828671D01*
X3983347Y14798258D01*
X3959432Y14793501D01*
X3916660Y14793501D01*
X3872466Y14811807D01*
X3864693Y14821278D01*
X3840898Y14856889D01*
X3812856Y14898857D01*
X3737122Y14949461D01*
X3724374Y14957979D01*
X3724370Y14957981D01*
X3646347Y14973500D01*
X3253651Y14973500D01*
X3175627Y14957981D01*
X3175623Y14957979D01*
X3087142Y14898857D01*
X3028020Y14810376D01*
X3028018Y14810372D01*
X3012499Y14732349D01*
X3012499Y14482745D01*
X2994193Y14438551D01*
X2949999Y14420245D01*
X2921625Y14427057D01*
X2826558Y14475497D01*
X2826554Y14475498D01*
X2780797Y14482745D01*
X2699999Y14495542D01*
X2699998Y14495542D01*
X2679775Y14492339D01*
X2633261Y14503507D01*
X2608268Y14544294D01*
X2607499Y14554070D01*
X2607499Y14796856D01*
X2592269Y14873423D01*
X2586354Y14882276D01*
X2534251Y14960253D01*
X2447423Y15018270D01*
X2447421Y15018271D01*
X2370855Y15033500D01*
X2049143Y15033500D01*
X1972576Y15018271D01*
X1972574Y15018270D01*
X1885746Y14960253D01*
X1827729Y14873425D01*
X1827728Y14873423D01*
X1812499Y14796857D01*
X1812499Y14375144D01*
X1827728Y14298578D01*
X1827729Y14298576D01*
X1885746Y14211748D01*
X1972574Y14153731D01*
X1972575Y14153731D01*
X1972576Y14153730D01*
X2012299Y14145829D01*
X2052073Y14119254D01*
X2061406Y14072338D01*
X2034831Y14032564D01*
X2012301Y14023231D01*
X1935626Y14007979D01*
X1935623Y14007978D01*
X1847142Y13948856D01*
X1788020Y13860375D01*
X1788018Y13860371D01*
X1772499Y13782348D01*
X1772499Y13389651D01*
X1788018Y13311628D01*
X1788019Y13311626D01*
X1847142Y13223142D01*
X1935626Y13164019D01*
X2013651Y13148499D01*
X2221692Y13148499D01*
X2265886Y13130193D01*
X2284192Y13085999D01*
X2265886Y13041805D01*
X2237466Y13013385D01*
X2212703Y12988622D01*
X2168508Y12970317D01*
X2156319Y12971517D01*
X2150120Y12972750D01*
X2146348Y12973500D01*
X1753652Y12973500D01*
X1675628Y12957981D01*
X1675624Y12957979D01*
X1587143Y12898857D01*
X1553348Y12848279D01*
X1513574Y12821703D01*
X1501381Y12820502D01*
X1398619Y12820502D01*
X1354425Y12838808D01*
X1346652Y12848279D01*
X1336277Y12863806D01*
X1312857Y12898857D01*
X1254001Y12938183D01*
X1224375Y12957979D01*
X1224371Y12957981D01*
X1146348Y12973500D01*
X928305Y12973500D01*
X884111Y12991806D01*
X288325Y13587592D01*
X270019Y13631786D01*
X288325Y13675980D01*
X332519Y13694286D01*
X342285Y13693518D01*
X449999Y13676458D01*
X576554Y13696502D01*
X676014Y13747181D01*
X723699Y13750933D01*
X748580Y13735686D01*
X794193Y13690073D01*
X812499Y13645879D01*
X812499Y13389651D01*
X828018Y13311628D01*
X828019Y13311626D01*
X887142Y13223142D01*
X975626Y13164019D01*
X1053651Y13148499D01*
X1386347Y13148499D01*
X1464372Y13164019D01*
X1552856Y13223142D01*
X1611979Y13311626D01*
X1627499Y13389651D01*
X1627499Y13782347D01*
X1611979Y13860372D01*
X1552856Y13948856D01*
X1479335Y13997981D01*
X1464374Y14007978D01*
X1464372Y14007979D01*
X1435557Y14013711D01*
X1387696Y14023231D01*
X1347923Y14049807D01*
X1338591Y14096724D01*
X1365167Y14136497D01*
X1387695Y14145828D01*
X1427422Y14153730D01*
X1514251Y14211748D01*
X1572269Y14298577D01*
X1587499Y14375144D01*
X1587499Y14796856D01*
X1572269Y14873423D01*
X1566354Y14882276D01*
X1514251Y14960253D01*
X1427423Y15018270D01*
X1427421Y15018271D01*
X1350855Y15033500D01*
X1029143Y15033500D01*
X952576Y15018271D01*
X952574Y15018270D01*
X865746Y14960253D01*
X807729Y14873425D01*
X807728Y14873423D01*
X792499Y14796857D01*
X792499Y14536123D01*
X774193Y14491929D01*
X728706Y14446442D01*
X684512Y14428136D01*
X656137Y14434948D01*
X576554Y14475498D01*
X449999Y14495542D01*
X323443Y14475498D01*
X323442Y14475498D01*
X209275Y14417326D01*
X118673Y14326724D01*
X60501Y14212557D01*
X60501Y14212556D01*
X40457Y14086000D01*
X57515Y13978298D01*
X46347Y13931784D01*
X5561Y13906790D01*
X-40953Y13917958D01*
X-48407Y13924324D01*
X-833236Y14709154D01*
X-851542Y14753348D01*
X-846358Y14778271D01*
X-828286Y14819832D01*
X-820241Y14856888D01*
X-829267Y14906801D01*
X-856706Y14949460D01*
X-856707Y14949461D01*
X-887860Y14971074D01*
X-1765966Y15352886D01*
X-1773531Y15360720D01*
X-1168311Y15360720D01*
X-790015Y15196231D01*
X-790017Y15196231D01*
X-753105Y15188218D01*
X-703386Y15197208D01*
X-660894Y15224542D01*
X-639365Y15255574D01*
X-474879Y15633869D01*
X-958169Y15844011D01*
X-1168311Y15360720D01*
X-1773531Y15360720D01*
X-1799195Y15387296D01*
X-1798362Y15435120D01*
X-1750314Y15545630D01*
X-1715906Y15578859D01*
X-1668078Y15578025D01*
X-1668076Y15578024D01*
X-1351723Y15440469D01*
X-1118951Y15975803D01*
X-1096506Y16027423D01*
X-878421Y16027423D01*
X-395130Y15817281D01*
X-230641Y16195575D01*
X-222628Y16232486D01*
X-231618Y16282205D01*
X-258952Y16324697D01*
X-289984Y16346226D01*
X-668279Y16510713D01*
X-878421Y16027423D01*
X-1096506Y16027423D01*
X-851691Y16590462D01*
X-1168077Y16728031D01*
X-1201306Y16762441D01*
X-1200473Y16810265D01*
X1936Y19575806D01*
X3645Y19579414D01*
X35416Y19641252D01*
X71894Y19672194D01*
X119569Y19668280D01*
X150513Y19631801D01*
X152737Y19622466D01*
X160500Y19573451D01*
X160502Y19573444D01*
X218674Y19459277D01*
X280226Y19397725D01*
X297331Y19365726D01*
X301579Y19344374D01*
X301579Y19344372D01*
X310265Y19300701D01*
X310267Y19300697D01*
X354018Y19235219D01*
X354026Y19235208D01*
X366513Y19216519D01*
X366516Y19216516D01*
X382644Y19205740D01*
X392115Y19197967D01*
X595887Y18994195D01*
X614193Y18950001D01*
X595887Y18905807D01*
X595881Y18905801D01*
X592105Y18902026D01*
X582643Y18894261D01*
X566516Y18883485D01*
X552318Y18862237D01*
X510267Y18799304D01*
X510265Y18799300D01*
X490514Y18700001D01*
X494299Y18680973D01*
X495500Y18668779D01*
X495500Y17731223D01*
X494299Y17719031D01*
X490514Y17700002D01*
X490514Y17700000D01*
X510265Y17600701D01*
X510267Y17600697D01*
X554018Y17535219D01*
X554026Y17535208D01*
X566516Y17516515D01*
X582644Y17505739D01*
X592116Y17497966D01*
X797963Y17292120D01*
X805736Y17282649D01*
X816515Y17266516D01*
X900697Y17210267D01*
X900699Y17210266D01*
X977934Y17194903D01*
X977954Y17194900D01*
X999999Y17190515D01*
X999999Y17190516D01*
X1000000Y17190515D01*
X1019025Y17194300D01*
X1031217Y17195500D01*
X1756563Y17195500D01*
X1800757Y17177194D01*
X1859277Y17118674D01*
X1973445Y17060502D01*
X2100000Y17040458D01*
X2226555Y17060502D01*
X2334990Y17115754D01*
X2382676Y17119506D01*
X2415329Y17094789D01*
X2437142Y17062144D01*
X2437143Y17062143D01*
X2525627Y17003020D01*
X2603652Y16987500D01*
X2936348Y16987500D01*
X3014373Y17003020D01*
X3102857Y17062143D01*
X3161980Y17150627D01*
X3177500Y17228652D01*
X3177500Y17325000D01*
X3323000Y17325000D01*
X3323000Y17228702D01*
X3338490Y17150823D01*
X3338491Y17150821D01*
X3397503Y17062504D01*
X3485820Y17003492D01*
X3485822Y17003491D01*
X3563701Y16988001D01*
X3563702Y16988000D01*
X3630000Y16988000D01*
X3630000Y17325000D01*
X3830000Y17325000D01*
X3830000Y16988000D01*
X3896298Y16988000D01*
X3896298Y16988001D01*
X3974177Y17003491D01*
X3974179Y17003492D01*
X4062496Y17062504D01*
X4121508Y17150821D01*
X4121509Y17150823D01*
X4136999Y17228702D01*
X4137000Y17228702D01*
X4137000Y17325000D01*
X3830000Y17325000D01*
X3630000Y17325000D01*
X3323000Y17325000D01*
X3177500Y17325000D01*
X3177500Y17525000D01*
X3323000Y17525000D01*
X3630000Y17525000D01*
X3630000Y17862000D01*
X3830000Y17862000D01*
X3830000Y17525000D01*
X4137000Y17525000D01*
X4137000Y17621298D01*
X4136999Y17621299D01*
X4121509Y17699178D01*
X4121508Y17699180D01*
X4062496Y17787497D01*
X3974179Y17846509D01*
X3974177Y17846510D01*
X3896298Y17862000D01*
X3830000Y17862000D01*
X3630000Y17862000D01*
X3563702Y17862000D01*
X3485822Y17846510D01*
X3485820Y17846509D01*
X3397503Y17787497D01*
X3338491Y17699180D01*
X3338490Y17699178D01*
X3323000Y17621299D01*
X3323000Y17525000D01*
X3177500Y17525000D01*
X3177500Y17621348D01*
X3161980Y17699373D01*
X3102857Y17787857D01*
X3015078Y17846509D01*
X3014375Y17846979D01*
X3014371Y17846981D01*
X2936348Y17862500D01*
X2603652Y17862500D01*
X2525628Y17846981D01*
X2525624Y17846979D01*
X2437143Y17787858D01*
X2432788Y17783502D01*
X2431390Y17784900D01*
X2398430Y17762886D01*
X2351515Y17772228D01*
X2342055Y17779994D01*
X2340723Y17781326D01*
X2226555Y17839498D01*
X2100000Y17859542D01*
X1973444Y17839498D01*
X1973443Y17839498D01*
X1859276Y17781326D01*
X1800757Y17722806D01*
X1756563Y17704500D01*
X1131305Y17704500D01*
X1087111Y17722806D01*
X1022804Y17787114D01*
X1004500Y17831306D01*
X1004500Y18568695D01*
X1022806Y18612889D01*
X1087111Y18677194D01*
X1131305Y18695500D01*
X1756563Y18695500D01*
X1800757Y18677194D01*
X1859277Y18618674D01*
X1973445Y18560502D01*
X2100000Y18540458D01*
X2226555Y18560502D01*
X2340723Y18618674D01*
X2354145Y18632097D01*
X2398337Y18650403D01*
X2433062Y18639870D01*
X2437142Y18637144D01*
X2437143Y18637143D01*
X2525627Y18578020D01*
X2603652Y18562500D01*
X2936348Y18562500D01*
X3014373Y18578020D01*
X3102857Y18637143D01*
X3161980Y18725627D01*
X3177500Y18803652D01*
X3177500Y18900000D01*
X3323000Y18900000D01*
X3323000Y18803702D01*
X3338490Y18725823D01*
X3338491Y18725821D01*
X3397503Y18637504D01*
X3485820Y18578492D01*
X3485822Y18578491D01*
X3563701Y18563001D01*
X3563702Y18563000D01*
X3630000Y18563000D01*
X3630000Y18900000D01*
X3830000Y18900000D01*
X3830000Y18563000D01*
X3896298Y18563000D01*
X3896298Y18563001D01*
X3974177Y18578491D01*
X3974179Y18578492D01*
X4062496Y18637504D01*
X4121508Y18725821D01*
X4121509Y18725823D01*
X4136999Y18803702D01*
X4137000Y18803702D01*
X4137000Y18900000D01*
X3830000Y18900000D01*
X3630000Y18900000D01*
X3323000Y18900000D01*
X3177500Y18900000D01*
X3177500Y19100000D01*
X3323000Y19100000D01*
X3630000Y19100000D01*
X3630000Y19437000D01*
X3830000Y19437000D01*
X3830000Y19100000D01*
X4137000Y19100000D01*
X4137000Y19196298D01*
X4136999Y19196299D01*
X4121509Y19274178D01*
X4121508Y19274180D01*
X4062496Y19362497D01*
X3974179Y19421509D01*
X3974177Y19421510D01*
X3896298Y19437000D01*
X3830000Y19437000D01*
X3630000Y19437000D01*
X3563702Y19437000D01*
X3485822Y19421510D01*
X3485820Y19421509D01*
X3397503Y19362497D01*
X3338491Y19274180D01*
X3338490Y19274178D01*
X3323000Y19196299D01*
X3323000Y19100000D01*
X3177500Y19100000D01*
X3177500Y19196348D01*
X3161980Y19274373D01*
X3102857Y19362857D01*
X3015078Y19421509D01*
X3014375Y19421979D01*
X3014371Y19421981D01*
X2936348Y19437500D01*
X2603652Y19437500D01*
X2525628Y19421981D01*
X2525624Y19421979D01*
X2437142Y19362857D01*
X2402867Y19311562D01*
X2363093Y19284987D01*
X2322527Y19290598D01*
X2226559Y19339497D01*
X2226555Y19339498D01*
X2100000Y19359542D01*
X1973444Y19339498D01*
X1973443Y19339498D01*
X1859276Y19281326D01*
X1800757Y19222806D01*
X1756563Y19204500D01*
X1131306Y19204500D01*
X1087112Y19222806D01*
X903077Y19406841D01*
X884771Y19451035D01*
X891581Y19479405D01*
X939498Y19573445D01*
X959542Y19700000D01*
X939498Y19826555D01*
X881326Y19940723D01*
X790723Y20031326D01*
X676555Y20089498D01*
X550000Y20109542D01*
X549998Y20109542D01*
X549997Y20109542D01*
X542880Y20108415D01*
X496367Y20119584D01*
X471375Y20160372D01*
X482544Y20206885D01*
X492394Y20217567D01*
X536752Y20255640D01*
X543171Y20260467D01*
X719609Y20376149D01*
X726570Y20380097D01*
X916439Y20472137D01*
X923871Y20475165D01*
X1123974Y20542012D01*
X1131749Y20544063D01*
X1338768Y20584617D01*
X1346751Y20585652D01*
X1559188Y20599370D01*
X1563216Y20599500D01*
X1608889Y20599500D01*
X7891111Y20599500D01*
X7936691Y20599500D01*
X7940719Y20599370D01*
G37*
%TD.AperFunction*%
%TD*%
M02*
